2021,42101,Carbon monoxide,1,73,23,93,INSTRUMENTAL - GAS FILTER CORRELATION CO ANALYZER,FRM,2,3938
2021,42101,Carbon monoxide,1,73,1003,54,INSTRUMENTAL - NONDISPERSIVE INFRARED,FRM,1,4293
2021,42101,Carbon monoxide,1,73,2059,593,INSTRUMENTAL - Gas Filter Correlation Teledyne API 300 EU,FRM,1,2299
2021,42101,Carbon monoxide,2,20,18,554,INSTRUMENTAL - Gas Filter Correlation Thermo Electron 48i-TLE,FRM,1,4063
2021,42101,Carbon monoxide,2,90,34,593,INSTRUMENTAL - Gas Filter Correlation Teledyne API 300 EU,FRM,1,3666
2021,42101,Carbon monoxide,4,13,19,93,INSTRUMENTAL - GAS FILTER CORRELATION CO ANALYZER,FRM,1,5773
2021,42101,Carbon monoxide,4,13,1003,93,INSTRUMENTAL - GAS FILTER CORRELATION CO ANALYZER,FRM,1,5779
2021,42101,Carbon monoxide,4,13,3002,93,INSTRUMENTAL - GAS FILTER CORRELATION CO ANALYZER,FRM,1,5587
2021,42101,Carbon monoxide,4,13,4003,93,INSTRUMENTAL - GAS FILTER CORRELATION CO ANALYZER,FRM,1,5509
2021,42101,Carbon monoxide,4,13,4004,93,INSTRUMENTAL - GAS FILTER CORRELATION CO ANALYZER,FRM,1,5782
2021,42101,Carbon monoxide,4,13,4011,93,INSTRUMENTAL - GAS FILTER CORRELATION CO ANALYZER,FRM,1,5779
2021,42101,Carbon monoxide,4,13,4020,93,INSTRUMENTAL - GAS FILTER CORRELATION CO ANALYZER,FRM,1,1387
2021,42101,Carbon monoxide,4,13,4021,93,INSTRUMENTAL - GAS FILTER CORRELATION CO ANALYZER,FRM,1,4041
2021,42101,Carbon monoxide,4,13,9997,593,INSTRUMENTAL - Gas Filter Correlation Teledyne API 300 EU,FRM,1,6392
2021,42101,Carbon monoxide,4,19,1014,54,INSTRUMENTAL - NONDISPERSIVE INFRARED,FRM,1,6500
2021,42101,Carbon monoxide,4,19,1028,554,INSTRUMENTAL - Gas Filter Correlation Thermo Electron 48i-TLE,FRM,1,6502
2021,42101,Carbon monoxide,5,119,7,54,INSTRUMENTAL - NONDISPERSIVE INFRARED,FRM,2,6526
2021,42101,Carbon monoxide,6,1,9,54,INSTRUMENTAL - NONDISPERSIVE INFRARED,FRM,1,6205
2021,42101,Carbon monoxide,6,1,11,54,INSTRUMENTAL - NONDISPERSIVE INFRARED,FRM,1,6192
2021,42101,Carbon monoxide,6,1,12,54,INSTRUMENTAL - NONDISPERSIVE INFRARED,FRM,1,6249
2021,42101,Carbon monoxide,6,1,13,54,INSTRUMENTAL - NONDISPERSIVE INFRARED,FRM,1,6122
2021,42101,Carbon monoxide,6,1,15,54,INSTRUMENTAL - NONDISPERSIVE INFRARED,FRM,1,6237
2021,42101,Carbon monoxide,6,7,8,593,INSTRUMENTAL - Gas Filter Correlation Teledyne API 300 EU,FRM,3,2743
2021,42101,Carbon monoxide,6,13,2,54,INSTRUMENTAL - NONDISPERSIVE INFRARED,FRM,1,6100
2021,42101,Carbon monoxide,6,13,1002,54,INSTRUMENTAL - NONDISPERSIVE INFRARED,FRM,1,6094
2021,42101,Carbon monoxide,6,13,1004,54,INSTRUMENTAL - NONDISPERSIVE INFRARED,FRM,1,6097
2021,42101,Carbon monoxide,6,19,11,593,INSTRUMENTAL - Gas Filter Correlation Teledyne API 300 EU,FRM,3,2138
2021,42101,Carbon monoxide,6,19,2016,554,INSTRUMENTAL - Gas Filter Correlation Thermo Electron 48i-TLE,FRM,1,5805
2021,42101,Carbon monoxide,6,19,5001,554,INSTRUMENTAL - Gas Filter Correlation Thermo Electron 48i-TLE,FRM,1,3419
2021,42101,Carbon monoxide,6,23,1004,54,INSTRUMENTAL - NONDISPERSIVE INFRARED,FRM,1,3949
2021,42101,Carbon monoxide,6,25,5,593,INSTRUMENTAL - Gas Filter Correlation Teledyne API 300 EU,FRM,3,2069
2021,42101,Carbon monoxide,6,27,2,554,INSTRUMENTAL - Gas Filter Correlation Thermo Electron 48i-TLE,FRM,1,3822
2021,42101,Carbon monoxide,6,29,2012,554,INSTRUMENTAL - Gas Filter Correlation Thermo Electron 48i-TLE,FRM,1,1990
2021,42101,Carbon monoxide,6,37,2,158,INSTRUMENTAL - NONDISPERSIVE INFRARED PHOTOMETRY,FRM,1,4155
2021,42101,Carbon monoxide,6,37,16,158,INSTRUMENTAL - NONDISPERSIVE INFRARED PHOTOMETRY,FRM,2,4123
2021,42101,Carbon monoxide,6,37,113,106,INSTRUMENTAL - NONDISPERSIVE INFRARED PHOTOMETRY,FRM,1,4153
2021,42101,Carbon monoxide,6,37,1103,158,INSTRUMENTAL - NONDISPERSIVE INFRARED PHOTOMETRY,FRM,1,4306
2021,42101,Carbon monoxide,6,37,1103,554,INSTRUMENTAL - Gas Filter Correlation Thermo Electron 48i-TLE,FRM,9,1865
2021,42101,Carbon monoxide,6,37,1201,158,INSTRUMENTAL - NONDISPERSIVE INFRARED PHOTOMETRY,FRM,1,4315
2021,42101,Carbon monoxide,6,37,1302,158,INSTRUMENTAL - NONDISPERSIVE INFRARED PHOTOMETRY,FRM,1,4274
2021,42101,Carbon monoxide,6,37,1602,158,INSTRUMENTAL - NONDISPERSIVE INFRARED PHOTOMETRY,FRM,1,4300
2021,42101,Carbon monoxide,6,37,1701,106,INSTRUMENTAL - NONDISPERSIVE INFRARED PHOTOMETRY,FRM,1,4089
2021,42101,Carbon monoxide,6,37,2005,158,INSTRUMENTAL - NONDISPERSIVE INFRARED PHOTOMETRY,FRM,1,4308
2021,42101,Carbon monoxide,6,37,5005,158,INSTRUMENTAL - NONDISPERSIVE INFRARED PHOTOMETRY,FRM,1,4173
2021,42101,Carbon monoxide,6,37,6012,106,INSTRUMENTAL - NONDISPERSIVE INFRARED PHOTOMETRY,FRM,1,4313
2021,42101,Carbon monoxide,6,37,9033,93,INSTRUMENTAL - GAS FILTER CORRELATION CO ANALYZER,FRM,1,4037
2021,42101,Carbon monoxide,6,41,1,54,INSTRUMENTAL - NONDISPERSIVE INFRARED,FRM,1,6221
2021,42101,Carbon monoxide,6,53,1003,54,INSTRUMENTAL - NONDISPERSIVE INFRARED,FRM,1,4279
2021,42101,Carbon monoxide,6,55,4,54,INSTRUMENTAL - NONDISPERSIVE INFRARED,FRM,1,3170
2021,42101,Carbon monoxide,6,59,7,158,INSTRUMENTAL - NONDISPERSIVE INFRARED PHOTOMETRY,FRM,1,4281
2021,42101,Carbon monoxide,6,59,8,593,INSTRUMENTAL - Gas Filter Correlation Teledyne API 300 EU,FRM,1,3690
2021,42101,Carbon monoxide,6,59,2022,106,INSTRUMENTAL - NONDISPERSIVE INFRARED PHOTOMETRY,FRM,1,4324
2021,42101,Carbon monoxide,6,59,5001,106,INSTRUMENTAL - NONDISPERSIVE INFRARED PHOTOMETRY,FRM,1,4302
2021,42101,Carbon monoxide,6,65,5001,106,INSTRUMENTAL - NONDISPERSIVE INFRARED PHOTOMETRY,FRM,1,4318
2021,42101,Carbon monoxide,6,65,8001,158,INSTRUMENTAL - NONDISPERSIVE INFRARED PHOTOMETRY,FRM,1,3871
2021,42101,Carbon monoxide,6,65,8001,593,INSTRUMENTAL - Gas Filter Correlation Teledyne API 300 EU,FRM,9,4313
2021,42101,Carbon monoxide,6,65,8005,106,INSTRUMENTAL - NONDISPERSIVE INFRARED PHOTOMETRY,FRM,1,4309
2021,42101,Carbon monoxide,6,65,9001,158,INSTRUMENTAL - NONDISPERSIVE INFRARED PHOTOMETRY,FRM,1,4288
2021,42101,Carbon monoxide,6,67,6,593,INSTRUMENTAL - Gas Filter Correlation Teledyne API 300 EU,FRM,1,3406
2021,42101,Carbon monoxide,6,67,15,593,INSTRUMENTAL - Gas Filter Correlation Teledyne API 300 EU,FRM,1,3506
2021,42101,Carbon monoxide,6,71,1,93,INSTRUMENTAL - GAS FILTER CORRELATION CO ANALYZER,FRM,1,4126
2021,42101,Carbon monoxide,6,71,26,158,INSTRUMENTAL - NONDISPERSIVE INFRARED PHOTOMETRY,FRM,1,4305
2021,42101,Carbon monoxide,6,71,306,93,INSTRUMENTAL - GAS FILTER CORRELATION CO ANALYZER,FRM,1,4080
2021,42101,Carbon monoxide,6,71,1004,158,INSTRUMENTAL - NONDISPERSIVE INFRARED PHOTOMETRY,FRM,1,4271
2021,42101,Carbon monoxide,6,71,2002,106,INSTRUMENTAL - NONDISPERSIVE INFRARED PHOTOMETRY,FRM,1,4259
2021,42101,Carbon monoxide,6,71,9004,158,INSTRUMENTAL - NONDISPERSIVE INFRARED PHOTOMETRY,FRM,1,4237
2021,42101,Carbon monoxide,6,73,1017,554,INSTRUMENTAL - Gas Filter Correlation Thermo Electron 48i-TLE,FRM,1,3762
2021,42101,Carbon monoxide,6,73,1022,554,INSTRUMENTAL - Gas Filter Correlation Thermo Electron 48i-TLE,FRM,1,3645
2021,42101,Carbon monoxide,6,75,5,54,INSTRUMENTAL - NONDISPERSIVE INFRARED,FRM,1,6195
2021,42101,Carbon monoxide,6,77,1002,593,INSTRUMENTAL - Gas Filter Correlation Teledyne API 300 EU,FRM,3,2655
2021,42101,Carbon monoxide,6,81,1001,54,INSTRUMENTAL - NONDISPERSIVE INFRARED,FRM,1,6113
2021,42101,Carbon monoxide,6,83,1008,593,INSTRUMENTAL - Gas Filter Correlation Teledyne API 300 EU,FRM,3,725
2021,42101,Carbon monoxide,6,83,1025,54,INSTRUMENTAL - NONDISPERSIVE INFRARED,FRM,1,4852
2021,42101,Carbon monoxide,6,83,2004,54,INSTRUMENTAL - NONDISPERSIVE INFRARED,FRM,1,4387
2021,42101,Carbon monoxide,6,85,5,554,INSTRUMENTAL - Gas Filter Correlation Thermo Electron 48i-TLE,FRM,1,5927
2021,42101,Carbon monoxide,6,85,6,54,INSTRUMENTAL - NONDISPERSIVE INFRARED,FRM,1,6249
2021,42101,Carbon monoxide,6,95,4,54,INSTRUMENTAL - NONDISPERSIVE INFRARED,FRM,1,6189
2021,42101,Carbon monoxide,6,97,4,54,INSTRUMENTAL - NONDISPERSIVE INFRARED,FRM,1,6031
2021,42101,Carbon monoxide,6,99,5,593,INSTRUMENTAL - Gas Filter Correlation Teledyne API 300 EU,FRM,3,2458
2021,42101,Carbon monoxide,8,1,3001,554,INSTRUMENTAL - Gas Filter Correlation Thermo Electron 48i-TLE,FRM,1,5474
2021,42101,Carbon monoxide,8,31,2,554,INSTRUMENTAL - Gas Filter Correlation Thermo Electron 48i-TLE,FRM,2,5587
2021,42101,Carbon monoxide,8,31,26,554,INSTRUMENTAL - Gas Filter Correlation Thermo Electron 48i-TLE,FRM,1,5451
2021,42101,Carbon monoxide,8,31,27,554,INSTRUMENTAL - Gas Filter Correlation Thermo Electron 48i-TLE,FRM,1,5643
2021,42101,Carbon monoxide,8,41,15,554,INSTRUMENTAL - Gas Filter Correlation Thermo Electron 48i-TLE,FRM,2,5719
2021,42101,Carbon monoxide,8,67,7001,54,INSTRUMENTAL - NONDISPERSIVE INFRARED,FRM,1,572
2021,42101,Carbon monoxide,8,69,1004,554,INSTRUMENTAL - Gas Filter Correlation Thermo Electron 48i-TLE,FRM,1,5633
2021,42101,Carbon monoxide,8,123,9,554,INSTRUMENTAL - Gas Filter Correlation Thermo Electron 48i-TLE,FRM,1,5737
2021,42101,Carbon monoxide,9,3,25,554,INSTRUMENTAL - Gas Filter Correlation Thermo Electron 48i-TLE,FRM,1,2825
2021,42101,Carbon monoxide,9,5,5,554,INSTRUMENTAL - Gas Filter Correlation Thermo Electron 48i-TLE,FRM,1,3310
2021,42101,Carbon monoxide,9,9,27,554,INSTRUMENTAL - Gas Filter Correlation Thermo Electron 48i-TLE,FRM,1,3132
2021,42101,Carbon monoxide,10,3,2004,593,INSTRUMENTAL - Gas Filter Correlation Teledyne API 300 EU,FRM,1,3303
2021,42101,Carbon monoxide,11,1,43,593,INSTRUMENTAL - Gas Filter Correlation Teledyne API 300 EU,FRM,1,4385
2021,42101,Carbon monoxide,11,1,43,588,INSTRUMENTAL - Gas Filter Correlation Ecotech EC9830T,FRM,1,2025
2021,42101,Carbon monoxide,11,1,51,593,INSTRUMENTAL - Gas Filter Correlation Teledyne API 300 EU,FRM,1,6273
2021,42101,Carbon monoxide,12,11,34,554,INSTRUMENTAL - Gas Filter Correlation Thermo Electron 48i-TLE,FRM,1,4241
2021,42101,Carbon monoxide,12,11,35,554,INSTRUMENTAL - Gas Filter Correlation Thermo Electron 48i-TLE,FRM,1,4257
2021,42101,Carbon monoxide,12,31,108,54,INSTRUMENTAL - NONDISPERSIVE INFRARED,FRM,1,4314
2021,42101,Carbon monoxide,12,57,113,554,INSTRUMENTAL - Gas Filter Correlation Thermo Electron 48i-TLE,FRM,1,2235
2021,42101,Carbon monoxide,12,57,113,593,INSTRUMENTAL - Gas Filter Correlation Teledyne API 300 EU,FRM,1,1561
2021,42101,Carbon monoxide,12,57,3002,554,INSTRUMENTAL - Gas Filter Correlation Thermo Electron 48i-TLE,FRM,2,4292
2021,42101,Carbon monoxide,12,86,4002,93,INSTRUMENTAL - GAS FILTER CORRELATION CO ANALYZER,FRM,1,3815
2021,42101,Carbon monoxide,12,95,2002,54,INSTRUMENTAL - NONDISPERSIVE INFRARED,FRM,1,4190
2021,42101,Carbon monoxide,12,103,27,593,INSTRUMENTAL - Gas Filter Correlation Teledyne API 300 EU,FRM,1,4264
2021,42101,Carbon monoxide,12,129,1,593,INSTRUMENTAL - Gas Filter Correlation Teledyne API 300 EU,FRM,1,4054
2021,42101,Carbon monoxide,13,89,2,554,INSTRUMENTAL - Gas Filter Correlation Thermo Electron 48i-TLE,FRM,1,5719
2021,42101,Carbon monoxide,13,121,56,54,INSTRUMENTAL - NONDISPERSIVE INFRARED,FRM,1,5705
2021,42101,Carbon monoxide,15,3,10,93,INSTRUMENTAL - GAS FILTER CORRELATION CO ANALYZER,FRM,1,4226
2021,42101,Carbon monoxide,15,3,10,593,INSTRUMENTAL - Gas Filter Correlation Teledyne API 300 EU,FRM,2,1988
2021,42101,Carbon monoxide,15,3,1001,93,INSTRUMENTAL - GAS FILTER CORRELATION CO ANALYZER,FRM,1,3738
2021,42101,Carbon monoxide,16,1,10,593,INSTRUMENTAL - Gas Filter Correlation Teledyne API 300 EU,FRM,1,4175
2021,42101,Carbon monoxide,16,1,14,93,INSTRUMENTAL - GAS FILTER CORRELATION CO ANALYZER,FRM,1,4317
2021,42101,Carbon monoxide,17,19,1001,593,INSTRUMENTAL - Gas Filter Correlation Teledyne API 300 EU,FRM,1,2627
2021,42101,Carbon monoxide,17,31,119,93,INSTRUMENTAL - GAS FILTER CORRELATION CO ANALYZER,FRM,1,6938
2021,42101,Carbon monoxide,17,31,4201,554,INSTRUMENTAL - Gas Filter Correlation Thermo Electron 48i-TLE,FRM,1,6159
2021,42101,Carbon monoxide,18,97,78,593,INSTRUMENTAL - Gas Filter Correlation Teledyne API 300 EU,FRM,1,6044
2021,42101,Carbon monoxide,18,97,87,93,INSTRUMENTAL - GAS FILTER CORRELATION CO ANALYZER,FRM,1,6023
2021,42101,Carbon monoxide,18,163,22,93,INSTRUMENTAL - GAS FILTER CORRELATION CO ANALYZER,FRM,1,6475
2021,42101,Carbon monoxide,19,163,15,554,INSTRUMENTAL - Gas Filter Correlation Thermo Electron 48i-TLE,FRM,1,6378
2021,42101,Carbon monoxide,20,209,21,593,INSTRUMENTAL - Gas Filter Correlation Teledyne API 300 EU,FRM,1,3673
2021,42101,Carbon monoxide,21,61,501,554,INSTRUMENTAL - Gas Filter Correlation Thermo Electron 48i-TLE,FRM,1,5420
2021,42101,Carbon monoxide,21,111,67,593,INSTRUMENTAL - Gas Filter Correlation Teledyne API 300 EU,FRM,1,4297
2021,42101,Carbon monoxide,21,111,75,593,INSTRUMENTAL - Gas Filter Correlation Teledyne API 300 EU,FRM,1,4276
2021,42101,Carbon monoxide,22,33,9,554,INSTRUMENTAL - Gas Filter Correlation Thermo Electron 48i-TLE,FRM,1,6971
2021,42101,Carbon monoxide,22,71,21,54,INSTRUMENTAL - NONDISPERSIVE INFRARED,FRM,1,6701
2021,42101,Carbon monoxide,23,3,1100,554,INSTRUMENTAL - Gas Filter Correlation Thermo Electron 48i-TLE,FRM,1,4223
2021,42101,Carbon monoxide,23,5,29,593,INSTRUMENTAL - Gas Filter Correlation Teledyne API 300 EU,FRM,1,6993
2021,42101,Carbon monoxide,23,9,103,554,INSTRUMENTAL - Gas Filter Correlation Thermo Electron 48i-TLE,FRM,1,6913
2021,42101,Carbon monoxide,24,5,3001,593,INSTRUMENTAL - Gas Filter Correlation Teledyne API 300 EU,FRM,1,6202
2021,42101,Carbon monoxide,24,23,2,593,INSTRUMENTAL - Gas Filter Correlation Teledyne API 300 EU,FRM,1,6364
2021,42101,Carbon monoxide,24,27,6,593,INSTRUMENTAL - Gas Filter Correlation Teledyne API 300 EU,FRM,1,6262
2021,42101,Carbon monoxide,24,33,30,593,INSTRUMENTAL - Gas Filter Correlation Teledyne API 300 EU,FRM,1,6289
2021,42101,Carbon monoxide,25,25,42,593,INSTRUMENTAL - Gas Filter Correlation Teledyne API 300 EU,FRM,1,5555
2021,42101,Carbon monoxide,25,25,44,593,INSTRUMENTAL - Gas Filter Correlation Teledyne API 300 EU,FRM,1,1344
2021,42101,Carbon monoxide,25,27,23,593,INSTRUMENTAL - Gas Filter Correlation Teledyne API 300 EU,FRM,1,5091
2021,42101,Carbon monoxide,26,81,20,93,INSTRUMENTAL - GAS FILTER CORRELATION CO ANALYZER,FRM,1,4057
2021,42101,Carbon monoxide,26,163,1,93,INSTRUMENTAL - GAS FILTER CORRELATION CO ANALYZER,FRM,1,4135
2021,42101,Carbon monoxide,26,163,93,54,INSTRUMENTAL - NONDISPERSIVE INFRARED,FRM,1,4129
2021,42101,Carbon monoxide,26,163,98,54,INSTRUMENTAL - NONDISPERSIVE INFRARED,FRM,1,3814
2021,42101,Carbon monoxide,26,163,99,54,INSTRUMENTAL - NONDISPERSIVE INFRARED,FRM,1,4141
2021,42101,Carbon monoxide,27,3,1002,593,INSTRUMENTAL - Gas Filter Correlation Teledyne API 300 EU,FRM,1,4009
2021,42101,Carbon monoxide,27,37,20,93,INSTRUMENTAL - GAS FILTER CORRELATION CO ANALYZER,FRM,1,4319
2021,42101,Carbon monoxide,27,37,423,93,INSTRUMENTAL - GAS FILTER CORRELATION CO ANALYZER,FRM,1,4283
2021,42101,Carbon monoxide,27,37,480,93,INSTRUMENTAL - GAS FILTER CORRELATION CO ANALYZER,FRM,1,4276
2021,42101,Carbon monoxide,27,53,954,93,INSTRUMENTAL - GAS FILTER CORRELATION CO ANALYZER,FRM,1,4322
2021,42101,Carbon monoxide,27,53,962,93,INSTRUMENTAL - GAS FILTER CORRELATION CO ANALYZER,FRM,1,4314
2021,42101,Carbon monoxide,28,49,20,593,INSTRUMENTAL - Gas Filter Correlation Teledyne API 300 EU,FRM,1,4801
2021,42101,Carbon monoxide,29,95,42,554,INSTRUMENTAL - Gas Filter Correlation Thermo Electron 48i-TLE,FRM,1,6452
2021,42101,Carbon monoxide,29,510,85,554,INSTRUMENTAL - Gas Filter Correlation Thermo Electron 48i-TLE,FRM,1,6320
2021,42101,Carbon monoxide,29,510,94,554,INSTRUMENTAL - Gas Filter Correlation Thermo Electron 48i-TLE,FRM,1,6427
2021,42101,Carbon monoxide,30,31,17,593,INSTRUMENTAL - Gas Filter Correlation Teledyne API 300 EU,FRM,5,5081
2021,42101,Carbon monoxide,30,49,4,554,INSTRUMENTAL - Gas Filter Correlation Thermo Electron 48i-TLE,FRM,1,3852
2021,42101,Carbon monoxide,31,55,19,554,INSTRUMENTAL - Gas Filter Correlation Thermo Electron 48i-TLE,FRM,1,6442
2021,42101,Carbon monoxide,31,55,56,54,INSTRUMENTAL - NONDISPERSIVE INFRARED,FRM,1,5197
2021,42101,Carbon monoxide,31,55,56,554,INSTRUMENTAL - Gas Filter Correlation Thermo Electron 48i-TLE,FRM,1,908
2021,42101,Carbon monoxide,32,3,75,593,INSTRUMENTAL - Gas Filter Correlation Teledyne API 300 EU,FRM,1,2620
2021,42101,Carbon monoxide,32,3,298,593,INSTRUMENTAL - Gas Filter Correlation Teledyne API 300 EU,FRM,1,2583
2021,42101,Carbon monoxide,32,3,540,593,INSTRUMENTAL - Gas Filter Correlation Teledyne API 300 EU,FRM,1,4733
2021,42101,Carbon monoxide,32,3,561,93,INSTRUMENTAL - GAS FILTER CORRELATION CO ANALYZER,FRM,1,5000
2021,42101,Carbon monoxide,32,3,1501,93,INSTRUMENTAL - GAS FILTER CORRELATION CO ANALYZER,FRM,1,4840
2021,42101,Carbon monoxide,32,3,2003,93,INSTRUMENTAL - GAS FILTER CORRELATION CO ANALYZER,FRM,1,1392
2021,42101,Carbon monoxide,32,3,7771,593,INSTRUMENTAL - Gas Filter Correlation Teledyne API 300 EU,FRM,1,1429
2021,42101,Carbon monoxide,32,31,31,593,INSTRUMENTAL - Gas Filter Correlation Teledyne API 300 EU,FRM,1,6431
2021,42101,Carbon monoxide,32,31,1005,93,INSTRUMENTAL - GAS FILTER CORRELATION CO ANALYZER,FRM,1,5799
2021,42101,Carbon monoxide,33,11,5001,593,INSTRUMENTAL - Gas Filter Correlation Teledyne API 300 EU,FRM,1,3614
2021,42101,Carbon monoxide,33,15,18,593,INSTRUMENTAL - Gas Filter Correlation Teledyne API 300 EU,FRM,1,4266
2021,42101,Carbon monoxide,34,3,10,54,INSTRUMENTAL - NONDISPERSIVE INFRARED,FRM,1,4295
2021,42101,Carbon monoxide,34,7,2,54,INSTRUMENTAL - NONDISPERSIVE INFRARED,FRM,1,3948
2021,42101,Carbon monoxide,34,13,3,554,INSTRUMENTAL - Gas Filter Correlation Thermo Electron 48i-TLE,FRM,1,4131
2021,42101,Carbon monoxide,34,17,1002,54,INSTRUMENTAL - NONDISPERSIVE INFRARED,FRM,1,1263
2021,42101,Carbon monoxide,34,39,3,54,INSTRUMENTAL - NONDISPERSIVE INFRARED,FRM,1,4127
2021,42101,Carbon monoxide,34,39,4,54,INSTRUMENTAL - NONDISPERSIVE INFRARED,FRM,1,4262
2021,42101,Carbon monoxide,35,1,23,593,INSTRUMENTAL - Gas Filter Correlation Teledyne API 300 EU,FRM,1,4065
2021,42101,Carbon monoxide,35,1,29,93,INSTRUMENTAL - GAS FILTER CORRELATION CO ANALYZER,FRM,1,4218
2021,42101,Carbon monoxide,36,5,133,593,INSTRUMENTAL - Gas Filter Correlation Teledyne API 300 EU,FRM,1,6423
2021,42101,Carbon monoxide,36,29,5,54,INSTRUMENTAL - NONDISPERSIVE INFRARED,FRM,1,5408
2021,42101,Carbon monoxide,36,29,23,593,INSTRUMENTAL - Gas Filter Correlation Teledyne API 300 EU,FRM,1,5969
2021,42101,Carbon monoxide,36,55,15,593,INSTRUMENTAL - Gas Filter Correlation Teledyne API 300 EU,FRM,1,6194
2021,42101,Carbon monoxide,36,55,1007,593,INSTRUMENTAL - Gas Filter Correlation Teledyne API 300 EU,FRM,1,6473
2021,42101,Carbon monoxide,36,61,135,554,INSTRUMENTAL - Gas Filter Correlation Thermo Electron 48i-TLE,FRM,1,6231
2021,42101,Carbon monoxide,36,81,124,554,INSTRUMENTAL - Gas Filter Correlation Thermo Electron 48i-TLE,FRM,1,6282
2021,42101,Carbon monoxide,36,81,125,593,INSTRUMENTAL - Gas Filter Correlation Teledyne API 300 EU,FRM,1,5886
2021,42101,Carbon monoxide,36,101,3,593,INSTRUMENTAL - Gas Filter Correlation Teledyne API 300 EU,FRM,1,6427
2021,42101,Carbon monoxide,36,103,44,54,INSTRUMENTAL - NONDISPERSIVE INFRARED,FRM,1,4136
2021,42101,Carbon monoxide,37,119,41,554,INSTRUMENTAL - Gas Filter Correlation Thermo Electron 48i-TLE,FRM,4,6324
2021,42101,Carbon monoxide,37,119,45,554,INSTRUMENTAL - Gas Filter Correlation Thermo Electron 48i-TLE,FRM,1,6390
2021,42101,Carbon monoxide,37,183,14,554,INSTRUMENTAL - Gas Filter Correlation Thermo Electron 48i-TLE,FRM,2,5442
2021,42101,Carbon monoxide,37,183,21,554,INSTRUMENTAL - Gas Filter Correlation Thermo Electron 48i-TLE,FRM,1,5522
2021,42101,Carbon monoxide,38,15,3,554,INSTRUMENTAL - Gas Filter Correlation Thermo Electron 48i-TLE,FRM,1,5303
2021,42101,Carbon monoxide,39,35,51,54,INSTRUMENTAL - NONDISPERSIVE INFRARED,FRM,1,5511
2021,42101,Carbon monoxide,39,35,51,93,INSTRUMENTAL - GAS FILTER CORRELATION CO ANALYZER,FRM,1,516
2021,42101,Carbon monoxide,39,35,60,554,INSTRUMENTAL - Gas Filter Correlation Thermo Electron 48i-TLE,FRM,1,2808
2021,42101,Carbon monoxide,39,35,60,593,INSTRUMENTAL - Gas Filter Correlation Teledyne API 300 EU,FRM,1,3303
2021,42101,Carbon monoxide,39,35,73,554,INSTRUMENTAL - Gas Filter Correlation Thermo Electron 48i-TLE,FRM,1,5839
2021,42101,Carbon monoxide,39,49,38,93,INSTRUMENTAL - GAS FILTER CORRELATION CO ANALYZER,FRM,1,6505
2021,42101,Carbon monoxide,39,61,40,593,INSTRUMENTAL - Gas Filter Correlation Teledyne API 300 EU,FRM,1,5630
2021,42101,Carbon monoxide,39,61,48,593,INSTRUMENTAL - Gas Filter Correlation Teledyne API 300 EU,FRM,1,6128
2021,42101,Carbon monoxide,39,67,5,93,INSTRUMENTAL - GAS FILTER CORRELATION CO ANALYZER,FRM,1,3414
2021,42101,Carbon monoxide,39,135,1001,554,INSTRUMENTAL - Gas Filter Correlation Thermo Electron 48i-TLE,FRM,1,5713
2021,42101,Carbon monoxide,40,1,9009,593,INSTRUMENTAL - Gas Filter Correlation Teledyne API 300 EU,FRM,1,4556
2021,42101,Carbon monoxide,40,109,97,93,INSTRUMENTAL - GAS FILTER CORRELATION CO ANALYZER,FRM,1,7188
2021,42101,Carbon monoxide,40,109,1037,93,INSTRUMENTAL - GAS FILTER CORRELATION CO ANALYZER,FRM,1,3254
2021,42101,Carbon monoxide,40,109,1037,54,INSTRUMENTAL - NONDISPERSIVE INFRARED,FRM,1,2805
2021,42101,Carbon monoxide,40,143,1127,593,INSTRUMENTAL - Gas Filter Correlation Teledyne API 300 EU,FRM,1,7126
2021,42101,Carbon monoxide,41,51,80,593,INSTRUMENTAL - Gas Filter Correlation Teledyne API 300 EU,FRM,1,4199
2021,42101,Carbon monoxide,41,67,5,593,INSTRUMENTAL - Gas Filter Correlation Teledyne API 300 EU,FRM,1,4161
2021,42101,Carbon monoxide,42,1,1,93,INSTRUMENTAL - GAS FILTER CORRELATION CO ANALYZER,FRM,1,2838
2021,42101,Carbon monoxide,42,3,8,593,INSTRUMENTAL - Gas Filter Correlation Teledyne API 300 EU,FRM,2,6150
2021,42101,Carbon monoxide,42,3,1376,593,INSTRUMENTAL - Gas Filter Correlation Teledyne API 300 EU,FRM,1,6217
2021,42101,Carbon monoxide,42,21,11,93,INSTRUMENTAL - GAS FILTER CORRELATION CO ANALYZER,FRM,1,5266
2021,42101,Carbon monoxide,42,49,3,93,INSTRUMENTAL - GAS FILTER CORRELATION CO ANALYZER,FRM,1,3521
2021,42101,Carbon monoxide,42,69,2006,93,INSTRUMENTAL - GAS FILTER CORRELATION CO ANALYZER,FRM,1,5345
2021,42101,Carbon monoxide,42,101,48,93,INSTRUMENTAL - GAS FILTER CORRELATION CO ANALYZER,FRM,1,6134
2021,42101,Carbon monoxide,42,101,75,93,INSTRUMENTAL - GAS FILTER CORRELATION CO ANALYZER,FRM,1,6289
2021,42101,Carbon monoxide,42,101,76,93,INSTRUMENTAL - GAS FILTER CORRELATION CO ANALYZER,FRM,1,6034
2021,42101,Carbon monoxide,44,7,30,554,INSTRUMENTAL - Gas Filter Correlation Thermo Electron 48i-TLE,FRM,1,5374
2021,42101,Carbon monoxide,44,7,1010,554,INSTRUMENTAL - Gas Filter Correlation Thermo Electron 48i-TLE,FRM,1,5285
2021,42101,Carbon monoxide,45,79,7,593,INSTRUMENTAL - Gas Filter Correlation Teledyne API 300 EU,FRM,1,4289
2021,42101,Carbon monoxide,46,99,8,593,INSTRUMENTAL - Gas Filter Correlation Teledyne API 300 EU,FRM,3,1573
2021,42101,Carbon monoxide,46,99,9,593,INSTRUMENTAL - Gas Filter Correlation Teledyne API 300 EU,FRM,3,2088
2021,42101,Carbon monoxide,47,9,101,554,INSTRUMENTAL - Gas Filter Correlation Thermo Electron 48i-TLE,FRM,1,6002
2021,42101,Carbon monoxide,47,37,40,93,INSTRUMENTAL - GAS FILTER CORRELATION CO ANALYZER,FRM,1,4025
2021,42101,Carbon monoxide,47,157,75,593,INSTRUMENTAL - Gas Filter Correlation Teledyne API 300 EU,FRM,1,4847
2021,42101,Carbon monoxide,47,157,100,593,INSTRUMENTAL - Gas Filter Correlation Teledyne API 300 EU,FRM,1,4802
2021,42101,Carbon monoxide,48,29,1069,93,INSTRUMENTAL - GAS FILTER CORRELATION CO ANALYZER,FRM,1,4814
2021,42101,Carbon monoxide,48,113,69,593,INSTRUMENTAL - Gas Filter Correlation Teledyne API 300 EU,FRM,3,5177
2021,42101,Carbon monoxide,48,141,37,93,INSTRUMENTAL - GAS FILTER CORRELATION CO ANALYZER,FRM,2,5013
2021,42101,Carbon monoxide,48,141,44,593,INSTRUMENTAL - Gas Filter Correlation Teledyne API 300 EU,FRM,2,4146
2021,42101,Carbon monoxide,48,141,1021,93,INSTRUMENTAL - GAS FILTER CORRELATION CO ANALYZER,FRM,1,4726
2021,42101,Carbon monoxide,48,201,1035,593,INSTRUMENTAL - Gas Filter Correlation Teledyne API 300 EU,FRM,1,3374
2021,42101,Carbon monoxide,48,201,1039,593,INSTRUMENTAL - Gas Filter Correlation Teledyne API 300 EU,FRM,2,4891
2021,42101,Carbon monoxide,48,201,1052,93,INSTRUMENTAL - GAS FILTER CORRELATION CO ANALYZER,FRM,1,4899
2021,42101,Carbon monoxide,48,309,1037,93,INSTRUMENTAL - GAS FILTER CORRELATION CO ANALYZER,FRM,1,4723
2021,42101,Carbon monoxide,48,439,1053,93,INSTRUMENTAL - GAS FILTER CORRELATION CO ANALYZER,FRM,1,5575
2021,42101,Carbon monoxide,48,453,1068,93,INSTRUMENTAL - GAS FILTER CORRELATION CO ANALYZER,FRM,1,5023
2021,42101,Carbon monoxide,48,479,16,93,INSTRUMENTAL - GAS FILTER CORRELATION CO ANALYZER,FRM,1,3593
2021,42101,Carbon monoxide,49,35,2005,554,INSTRUMENTAL - Gas Filter Correlation Thermo Electron 48i-TLE,FRM,1,7092
2021,42101,Carbon monoxide,49,35,3006,593,INSTRUMENTAL - Gas Filter Correlation Teledyne API 300 EU,FRM,1,6726
2021,42101,Carbon monoxide,49,35,3010,54,INSTRUMENTAL - NONDISPERSIVE INFRARED,FRM,1,7177
2021,42101,Carbon monoxide,49,35,3015,594,INSTRUMENTAL - Nondispersive Infrered Photometry,FRM,1,7044
2021,42101,Carbon monoxide,49,35,4002,54,INSTRUMENTAL - NONDISPERSIVE INFRARED,FRM,1,7234
2021,42101,Carbon monoxide,49,49,4001,593,INSTRUMENTAL - Gas Filter Correlation Teledyne API 300 EU,FRM,2,7207
2021,42101,Carbon monoxide,49,57,1003,593,INSTRUMENTAL - Gas Filter Correlation Teledyne API 300 EU,FRM,1,7164
2021,42101,Carbon monoxide,50,7,7,593,INSTRUMENTAL - Gas Filter Correlation Teledyne API 300 EU,FRM,1,4044
2021,42101,Carbon monoxide,50,7,14,93,INSTRUMENTAL - GAS FILTER CORRELATION CO ANALYZER,FRM,1,3825
2021,42101,Carbon monoxide,50,21,2,93,INSTRUMENTAL - GAS FILTER CORRELATION CO ANALYZER,FRM,1,4032
2021,42101,Carbon monoxide,51,13,20,54,INSTRUMENTAL - NONDISPERSIVE INFRARED,FRM,1,4245
2021,42101,Carbon monoxide,51,59,31,54,INSTRUMENTAL - NONDISPERSIVE INFRARED,FRM,1,1218
2021,42101,Carbon monoxide,51,59,31,93,INSTRUMENTAL - GAS FILTER CORRELATION CO ANALYZER,FRM,1,2825
2021,42101,Carbon monoxide,51,87,14,554,INSTRUMENTAL - Gas Filter Correlation Thermo Electron 48i-TLE,FRM,1,3250
2021,42101,Carbon monoxide,51,161,1004,54,INSTRUMENTAL - NONDISPERSIVE INFRARED,FRM,1,4040
2021,42101,Carbon monoxide,51,650,8,54,INSTRUMENTAL - NONDISPERSIVE INFRARED,FRM,1,4238
2021,42101,Carbon monoxide,51,710,24,54,INSTRUMENTAL - NONDISPERSIVE INFRARED,FRM,1,3998
2021,42101,Carbon monoxide,51,760,25,54,INSTRUMENTAL - NONDISPERSIVE INFRARED,FRM,1,1355
2021,42101,Carbon monoxide,51,760,25,93,INSTRUMENTAL - GAS FILTER CORRELATION CO ANALYZER,FRM,1,2774
2021,42101,Carbon monoxide,53,9,13,593,INSTRUMENTAL - Gas Filter Correlation Teledyne API 300 EU,FRM,2,3299
2021,42101,Carbon monoxide,53,33,30,593,INSTRUMENTAL - Gas Filter Correlation Teledyne API 300 EU,FRM,1,4051
2021,42101,Carbon monoxide,53,33,80,593,INSTRUMENTAL - Gas Filter Correlation Teledyne API 300 EU,FRM,2,4216
2021,42101,Carbon monoxide,54,39,20,93,INSTRUMENTAL - GAS FILTER CORRELATION CO ANALYZER,FRM,1,5948
2021,42101,Carbon monoxide,55,27,1,593,INSTRUMENTAL - Gas Filter Correlation Teledyne API 300 EU,FRM,1,4026
2021,42101,Carbon monoxide,55,59,19,593,INSTRUMENTAL - Gas Filter Correlation Teledyne API 300 EU,FRM,1,1396
2021,42101,Carbon monoxide,55,79,56,593,INSTRUMENTAL - Gas Filter Correlation Teledyne API 300 EU,FRM,1,4283
2021,42101,Carbon monoxide,56,9,10,593,INSTRUMENTAL - Gas Filter Correlation Teledyne API 300 EU,FRM,1,4064
2021,42101,Carbon monoxide,56,21,100,554,INSTRUMENTAL - Gas Filter Correlation Thermo Electron 48i-TLE,FRM,1,3757
2021,42101,Carbon monoxide,56,39,1013,554,INSTRUMENTAL - Gas Filter Correlation Thermo Electron 48i-TLE,FRM,1,4850
2021,42101,Carbon monoxide,72,21,10,93,INSTRUMENTAL - GAS FILTER CORRELATION CO ANALYZER,FRM,1,5873
2021,42101,Carbon monoxide,72,25,7,93,INSTRUMENTAL - GAS FILTER CORRELATION CO ANALYZER,FRM,1,1814
2021,42101,Carbon monoxide,72,113,4,93,INSTRUMENTAL - GAS FILTER CORRELATION CO ANALYZER,FRM,1,1011
2021,42101,Carbon monoxide,72,127,3,93,INSTRUMENTAL - GAS FILTER CORRELATION CO ANALYZER,FRM,1,955
2021,42602,Nitrogen dioxide (NO2),1,73,23,200,Teledyne-API Model 200EUP or T200UP - Photolytic-Chemiluminescence,FEM,1,3791
2021,42602,Nitrogen dioxide (NO2),1,73,2059,200,Teledyne-API Model 200EUP or T200UP - Photolytic-Chemiluminescence,FEM,1,4004
2021,42602,Nitrogen dioxide (NO2),4,13,19,74,INSTRUMENTAL - CHEMILUMINESCENCE,FRM,1,1589
2021,42602,Nitrogen dioxide (NO2),4,13,19,99,INSTRUMENTAL - GAS PHASE CHEMILUMINESCENCE,FRM,1,4085
2021,42602,Nitrogen dioxide (NO2),4,13,3002,99,INSTRUMENTAL - GAS PHASE CHEMILUMINESCENCE,FRM,6,5738
2021,42602,Nitrogen dioxide (NO2),4,13,4011,99,INSTRUMENTAL - GAS PHASE CHEMILUMINESCENCE,FRM,1,5770
2021,42602,Nitrogen dioxide (NO2),4,13,4020,74,INSTRUMENTAL - CHEMILUMINESCENCE,FRM,1,5736
2021,42602,Nitrogen dioxide (NO2),4,13,4021,99,INSTRUMENTAL - GAS PHASE CHEMILUMINESCENCE,FRM,1,3939
2021,42602,Nitrogen dioxide (NO2),4,13,9997,212,Teledyne Model T500U - Cavity Attenuated Phase Shift Spectroscopy,FEM,1,6381
2021,42602,Nitrogen dioxide (NO2),4,19,1011,74,INSTRUMENTAL - CHEMILUMINESCENCE,FRM,1,2818
2021,42602,Nitrogen dioxide (NO2),4,19,1011,212,Teledyne Model T500U - Cavity Attenuated Phase Shift Spectroscopy,FEM,1,3643
2021,42602,Nitrogen dioxide (NO2),4,19,1028,74,INSTRUMENTAL - CHEMILUMINESCENCE,FRM,1,6319
2021,42602,Nitrogen dioxide (NO2),5,35,5,35,INSTRUMENTAL - CHEMILUMINESCENCE,FRM,1,6507
2021,42602,Nitrogen dioxide (NO2),5,119,7,74,INSTRUMENTAL - CHEMILUMINESCENCE,FRM,1,6520
2021,42602,Nitrogen dioxide (NO2),6,1,7,74,INSTRUMENTAL - CHEMILUMINESCENCE,FRM,1,6239
2021,42602,Nitrogen dioxide (NO2),6,1,9,74,INSTRUMENTAL - CHEMILUMINESCENCE,FRM,1,6205
2021,42602,Nitrogen dioxide (NO2),6,1,11,74,INSTRUMENTAL - CHEMILUMINESCENCE,FRM,1,6193
2021,42602,Nitrogen dioxide (NO2),6,1,12,74,INSTRUMENTAL - CHEMILUMINESCENCE,FRM,1,5890
2021,42602,Nitrogen dioxide (NO2),6,1,13,74,INSTRUMENTAL - CHEMILUMINESCENCE,FRM,1,6048
2021,42602,Nitrogen dioxide (NO2),6,1,15,74,INSTRUMENTAL - CHEMILUMINESCENCE,FRM,1,6241
2021,42602,Nitrogen dioxide (NO2),6,7,8,74,INSTRUMENTAL - CHEMILUMINESCENCE,FRM,1,2616
2021,42602,Nitrogen dioxide (NO2),6,13,2,74,INSTRUMENTAL - CHEMILUMINESCENCE,FRM,1,6103
2021,42602,Nitrogen dioxide (NO2),6,13,1002,74,INSTRUMENTAL - CHEMILUMINESCENCE,FRM,1,6105
2021,42602,Nitrogen dioxide (NO2),6,13,1004,74,INSTRUMENTAL - CHEMILUMINESCENCE,FRM,1,6096
2021,42602,Nitrogen dioxide (NO2),6,13,2007,74,INSTRUMENTAL - CHEMILUMINESCENCE,FRM,1,6244
2021,42602,Nitrogen dioxide (NO2),6,19,7,99,INSTRUMENTAL - GAS PHASE CHEMILUMINESCENCE,FRM,1,4836
2021,42602,Nitrogen dioxide (NO2),6,19,11,599,Instrumental - Chemiluminescence Teledyne API 200 EU/501,FRM,3,2064
2021,42602,Nitrogen dioxide (NO2),6,19,242,99,INSTRUMENTAL - GAS PHASE CHEMILUMINESCENCE,FRM,1,2037
2021,42602,Nitrogen dioxide (NO2),6,19,2016,212,Teledyne Model T500U - Cavity Attenuated Phase Shift Spectroscopy,FEM,1,6170
2021,42602,Nitrogen dioxide (NO2),6,19,5001,99,INSTRUMENTAL - GAS PHASE CHEMILUMINESCENCE,FRM,1,3418
2021,42602,Nitrogen dioxide (NO2),6,23,1004,74,INSTRUMENTAL - CHEMILUMINESCENCE,FRM,1,3673
2021,42602,Nitrogen dioxide (NO2),6,25,5,99,INSTRUMENTAL - GAS PHASE CHEMILUMINESCENCE,FRM,1,2063
2021,42602,Nitrogen dioxide (NO2),6,25,1003,99,INSTRUMENTAL - GAS PHASE CHEMILUMINESCENCE,FRM,1,4080
2021,42602,Nitrogen dioxide (NO2),6,29,7,74,INSTRUMENTAL - CHEMILUMINESCENCE,FRM,1,2076
2021,42602,Nitrogen dioxide (NO2),6,29,14,74,INSTRUMENTAL - CHEMILUMINESCENCE,FRM,1,2046
2021,42602,Nitrogen dioxide (NO2),6,29,2012,99,INSTRUMENTAL - GAS PHASE CHEMILUMINESCENCE,FRM,1,2003
2021,42602,Nitrogen dioxide (NO2),6,29,2019,212,Teledyne Model T500U - Cavity Attenuated Phase Shift Spectroscopy,FEM,1,4476
2021,42602,Nitrogen dioxide (NO2),6,29,6001,74,INSTRUMENTAL - CHEMILUMINESCENCE,FRM,1,2070
2021,42602,Nitrogen dioxide (NO2),6,31,1004,99,INSTRUMENTAL - GAS PHASE CHEMILUMINESCENCE,FRM,1,3102
2021,42602,Nitrogen dioxide (NO2),6,37,2,74,INSTRUMENTAL - CHEMILUMINESCENCE,FRM,2,4308
2021,42602,Nitrogen dioxide (NO2),6,37,16,74,INSTRUMENTAL - CHEMILUMINESCENCE,FRM,1,2855
2021,42602,Nitrogen dioxide (NO2),6,37,16,99,INSTRUMENTAL - GAS PHASE CHEMILUMINESCENCE,FRM,1,1237
2021,42602,Nitrogen dioxide (NO2),6,37,113,74,INSTRUMENTAL - CHEMILUMINESCENCE,FRM,1,4300
2021,42602,Nitrogen dioxide (NO2),6,37,1103,99,INSTRUMENTAL - GAS PHASE CHEMILUMINESCENCE,FRM,1,4306
2021,42602,Nitrogen dioxide (NO2),6,37,1103,212,Teledyne Model T500U - Cavity Attenuated Phase Shift Spectroscopy,FEM,3,3935
2021,42602,Nitrogen dioxide (NO2),6,37,1201,157,Instrumental - Chemiluminescence,FRM,2,4313
2021,42602,Nitrogen dioxide (NO2),6,37,1302,99,INSTRUMENTAL - GAS PHASE CHEMILUMINESCENCE,FRM,1,4273
2021,42602,Nitrogen dioxide (NO2),6,37,1602,74,INSTRUMENTAL - CHEMILUMINESCENCE,FRM,1,3248
2021,42602,Nitrogen dioxide (NO2),6,37,1602,99,INSTRUMENTAL - GAS PHASE CHEMILUMINESCENCE,FRM,1,1030
2021,42602,Nitrogen dioxide (NO2),6,37,1701,99,INSTRUMENTAL - GAS PHASE CHEMILUMINESCENCE,FRM,2,4287
2021,42602,Nitrogen dioxide (NO2),6,37,2005,99,INSTRUMENTAL - GAS PHASE CHEMILUMINESCENCE,FRM,1,4308
2021,42602,Nitrogen dioxide (NO2),6,37,4008,74,INSTRUMENTAL - CHEMILUMINESCENCE,FRM,1,1428
2021,42602,Nitrogen dioxide (NO2),6,37,4008,99,INSTRUMENTAL - GAS PHASE CHEMILUMINESCENCE,FRM,1,2680
2021,42602,Nitrogen dioxide (NO2),6,37,4009,99,INSTRUMENTAL - GAS PHASE CHEMILUMINESCENCE,FRM,1,4281
2021,42602,Nitrogen dioxide (NO2),6,37,4010,99,INSTRUMENTAL - GAS PHASE CHEMILUMINESCENCE,FRM,1,4235
2021,42602,Nitrogen dioxide (NO2),6,37,5005,99,INSTRUMENTAL - GAS PHASE CHEMILUMINESCENCE,FRM,1,4299
2021,42602,Nitrogen dioxide (NO2),6,37,6012,99,INSTRUMENTAL - GAS PHASE CHEMILUMINESCENCE,FRM,1,4313
2021,42602,Nitrogen dioxide (NO2),6,37,9033,99,INSTRUMENTAL - GAS PHASE CHEMILUMINESCENCE,FRM,1,4122
2021,42602,Nitrogen dioxide (NO2),6,39,4,99,INSTRUMENTAL - GAS PHASE CHEMILUMINESCENCE,FRM,1,5464
2021,42602,Nitrogen dioxide (NO2),6,41,1,74,INSTRUMENTAL - CHEMILUMINESCENCE,FRM,1,6228
2021,42602,Nitrogen dioxide (NO2),6,53,1003,74,INSTRUMENTAL - CHEMILUMINESCENCE,FRM,1,4279
2021,42602,Nitrogen dioxide (NO2),6,55,4,74,INSTRUMENTAL - CHEMILUMINESCENCE,FRM,1,3169
2021,42602,Nitrogen dioxide (NO2),6,59,7,74,INSTRUMENTAL - CHEMILUMINESCENCE,FRM,5,4107
2021,42602,Nitrogen dioxide (NO2),6,59,8,74,INSTRUMENTAL - CHEMILUMINESCENCE,FRM,1,4271
2021,42602,Nitrogen dioxide (NO2),6,59,5001,74,INSTRUMENTAL - CHEMILUMINESCENCE,FRM,2,2459
2021,42602,Nitrogen dioxide (NO2),6,59,5001,99,INSTRUMENTAL - GAS PHASE CHEMILUMINESCENCE,FRM,2,1504
2021,42602,Nitrogen dioxide (NO2),6,61,6,99,INSTRUMENTAL - GAS PHASE CHEMILUMINESCENCE,FRM,1,2747
2021,42602,Nitrogen dioxide (NO2),6,65,9,99,INSTRUMENTAL - GAS PHASE CHEMILUMINESCENCE,FRM,1,2020
2021,42602,Nitrogen dioxide (NO2),6,65,12,74,INSTRUMENTAL - CHEMILUMINESCENCE,FRM,1,4308
2021,42602,Nitrogen dioxide (NO2),6,65,1016,74,INSTRUMENTAL - CHEMILUMINESCENCE,FRM,1,5262
2021,42602,Nitrogen dioxide (NO2),6,65,5001,74,INSTRUMENTAL - CHEMILUMINESCENCE,FRM,2,4318
2021,42602,Nitrogen dioxide (NO2),6,65,8001,74,INSTRUMENTAL - CHEMILUMINESCENCE,FRM,2,3949
2021,42602,Nitrogen dioxide (NO2),6,65,8001,212,Teledyne Model T500U - Cavity Attenuated Phase Shift Spectroscopy,FEM,3,3963
2021,42602,Nitrogen dioxide (NO2),6,65,8005,99,INSTRUMENTAL - GAS PHASE CHEMILUMINESCENCE,FRM,1,4309
2021,42602,Nitrogen dioxide (NO2),6,65,9001,74,INSTRUMENTAL - CHEMILUMINESCENCE,FRM,1,4213
2021,42602,Nitrogen dioxide (NO2),6,67,6,200,Teledyne-API Model 200EUP or T200UP - Photolytic-Chemiluminescence,FEM,1,3405
2021,42602,Nitrogen dioxide (NO2),6,67,10,74,INSTRUMENTAL - CHEMILUMINESCENCE,FRM,1,2704
2021,42602,Nitrogen dioxide (NO2),6,67,11,200,Teledyne-API Model 200EUP or T200UP - Photolytic-Chemiluminescence,FEM,1,3179
2021,42602,Nitrogen dioxide (NO2),6,67,12,200,Teledyne-API Model 200EUP or T200UP - Photolytic-Chemiluminescence,FEM,1,2267
2021,42602,Nitrogen dioxide (NO2),6,67,15,200,Teledyne-API Model 200EUP or T200UP - Photolytic-Chemiluminescence,FEM,1,3511
2021,42602,Nitrogen dioxide (NO2),6,71,1,99,INSTRUMENTAL - GAS PHASE CHEMILUMINESCENCE,FRM,1,4108
2021,42602,Nitrogen dioxide (NO2),6,71,26,99,INSTRUMENTAL - GAS PHASE CHEMILUMINESCENCE,FRM,1,4305
2021,42602,Nitrogen dioxide (NO2),6,71,27,99,INSTRUMENTAL - GAS PHASE CHEMILUMINESCENCE,FRM,1,6235
2021,42602,Nitrogen dioxide (NO2),6,71,306,99,INSTRUMENTAL - GAS PHASE CHEMILUMINESCENCE,FRM,1,4061
2021,42602,Nitrogen dioxide (NO2),6,71,1004,74,INSTRUMENTAL - CHEMILUMINESCENCE,FRM,2,4299
2021,42602,Nitrogen dioxide (NO2),6,71,1234,99,INSTRUMENTAL - GAS PHASE CHEMILUMINESCENCE,FRM,1,4046
2021,42602,Nitrogen dioxide (NO2),6,71,2002,99,INSTRUMENTAL - GAS PHASE CHEMILUMINESCENCE,FRM,1,4302
2021,42602,Nitrogen dioxide (NO2),6,71,9004,74,INSTRUMENTAL - CHEMILUMINESCENCE,FRM,1,3142
2021,42602,Nitrogen dioxide (NO2),6,71,9004,99,INSTRUMENTAL - GAS PHASE CHEMILUMINESCENCE,FRM,1,1137
2021,42602,Nitrogen dioxide (NO2),6,73,1,74,INSTRUMENTAL - CHEMILUMINESCENCE,FRM,1,3834
2021,42602,Nitrogen dioxide (NO2),6,73,1006,74,INSTRUMENTAL - CHEMILUMINESCENCE,FRM,1,3935
2021,42602,Nitrogen dioxide (NO2),6,73,1008,74,INSTRUMENTAL - CHEMILUMINESCENCE,FRM,1,3817
2021,42602,Nitrogen dioxide (NO2),6,73,1014,74,INSTRUMENTAL - CHEMILUMINESCENCE,FRM,1,3960
2021,42602,Nitrogen dioxide (NO2),6,73,1016,74,INSTRUMENTAL - CHEMILUMINESCENCE,FRM,1,3942
2021,42602,Nitrogen dioxide (NO2),6,73,1017,74,INSTRUMENTAL - CHEMILUMINESCENCE,FRM,1,3844
2021,42602,Nitrogen dioxide (NO2),6,73,1022,74,INSTRUMENTAL - CHEMILUMINESCENCE,FRM,1,1830
2021,42602,Nitrogen dioxide (NO2),6,73,1022,212,Teledyne Model T500U - Cavity Attenuated Phase Shift Spectroscopy,FEM,2,3700
2021,42602,Nitrogen dioxide (NO2),6,73,1026,74,INSTRUMENTAL - CHEMILUMINESCENCE,FRM,1,3904
2021,42602,Nitrogen dioxide (NO2),6,73,1026,212,Teledyne Model T500U - Cavity Attenuated Phase Shift Spectroscopy,FEM,2,9
2021,42602,Nitrogen dioxide (NO2),6,75,5,74,INSTRUMENTAL - CHEMILUMINESCENCE,FRM,1,6147
2021,42602,Nitrogen dioxide (NO2),6,77,1002,99,INSTRUMENTAL - GAS PHASE CHEMILUMINESCENCE,FRM,2,2693
2021,42602,Nitrogen dioxide (NO2),6,77,3005,99,INSTRUMENTAL - GAS PHASE CHEMILUMINESCENCE,FRM,1,2019
2021,42602,Nitrogen dioxide (NO2),6,79,4002,599,Instrumental - Chemiluminescence Teledyne API 200 EU/501,FRM,1,5525
2021,42602,Nitrogen dioxide (NO2),6,79,8002,99,INSTRUMENTAL - GAS PHASE CHEMILUMINESCENCE,FRM,1,4825
2021,42602,Nitrogen dioxide (NO2),6,81,1001,74,INSTRUMENTAL - CHEMILUMINESCENCE,FRM,1,6213
2021,42602,Nitrogen dioxide (NO2),6,83,1008,99,INSTRUMENTAL - GAS PHASE CHEMILUMINESCENCE,FRM,1,725
2021,42602,Nitrogen dioxide (NO2),6,83,1013,74,INSTRUMENTAL - CHEMILUMINESCENCE,FRM,1,1274
2021,42602,Nitrogen dioxide (NO2),6,83,1014,74,INSTRUMENTAL - CHEMILUMINESCENCE,FRM,1,981
2021,42602,Nitrogen dioxide (NO2),6,83,1021,74,INSTRUMENTAL - CHEMILUMINESCENCE,FRM,1,3895
2021,42602,Nitrogen dioxide (NO2),6,83,1025,74,INSTRUMENTAL - CHEMILUMINESCENCE,FRM,1,4850
2021,42602,Nitrogen dioxide (NO2),6,83,2004,74,INSTRUMENTAL - CHEMILUMINESCENCE,FRM,1,4803
2021,42602,Nitrogen dioxide (NO2),6,85,5,74,INSTRUMENTAL - CHEMILUMINESCENCE,FRM,1,5935
2021,42602,Nitrogen dioxide (NO2),6,85,6,74,INSTRUMENTAL - CHEMILUMINESCENCE,FRM,1,6249
2021,42602,Nitrogen dioxide (NO2),6,95,4,74,INSTRUMENTAL - CHEMILUMINESCENCE,FRM,1,5711
2021,42602,Nitrogen dioxide (NO2),6,97,4,74,INSTRUMENTAL - CHEMILUMINESCENCE,FRM,1,6121
2021,42602,Nitrogen dioxide (NO2),6,99,6,99,INSTRUMENTAL - GAS PHASE CHEMILUMINESCENCE,FRM,1,5541
2021,42602,Nitrogen dioxide (NO2),6,101,3,74,INSTRUMENTAL - CHEMILUMINESCENCE,FRM,1,2689
2021,42602,Nitrogen dioxide (NO2),6,107,2002,74,INSTRUMENTAL - CHEMILUMINESCENCE,FRM,1,2070
2021,42602,Nitrogen dioxide (NO2),6,111,2002,99,INSTRUMENTAL - GAS PHASE CHEMILUMINESCENCE,FRM,1,6199
2021,42602,Nitrogen dioxide (NO2),6,111,3001,99,INSTRUMENTAL - GAS PHASE CHEMILUMINESCENCE,FRM,1,6207
2021,42602,Nitrogen dioxide (NO2),6,113,4,74,INSTRUMENTAL - CHEMILUMINESCENCE,FRM,1,2660
2021,42602,Nitrogen dioxide (NO2),8,1,3001,99,INSTRUMENTAL - GAS PHASE CHEMILUMINESCENCE,FRM,1,5114
2021,42602,Nitrogen dioxide (NO2),8,7,7004,42,INSTRUMENTAL - CHEMILUMINESCENCE,FRM,1,724
2021,42602,Nitrogen dioxide (NO2),8,29,7,99,INSTRUMENTAL - GAS PHASE CHEMILUMINESCENCE,FRM,1,4246
2021,42602,Nitrogen dioxide (NO2),8,31,2,599,Instrumental - Chemiluminescence Teledyne API 200 EU/501,FRM,1,5051
2021,42602,Nitrogen dioxide (NO2),8,31,26,212,Teledyne Model T500U - Cavity Attenuated Phase Shift Spectroscopy,FEM,1,4974
2021,42602,Nitrogen dioxide (NO2),8,31,27,99,INSTRUMENTAL - GAS PHASE CHEMILUMINESCENCE,FRM,1,4130
2021,42602,Nitrogen dioxide (NO2),8,31,27,256,Instrumental - Teledyne API - Model N500 - Cavity-Attenuated Phase-Shift (CAPS) spectroscopy Nitrogen Oxides Analyzer,FEM,1,968
2021,42602,Nitrogen dioxide (NO2),8,31,28,99,INSTRUMENTAL - GAS PHASE CHEMILUMINESCENCE,FRM,1,5480
2021,42602,Nitrogen dioxide (NO2),8,45,19,99,INSTRUMENTAL - GAS PHASE CHEMILUMINESCENCE,FRM,1,3121
2021,42602,Nitrogen dioxide (NO2),8,59,6,212,Teledyne Model T500U - Cavity Attenuated Phase Shift Spectroscopy,FEM,1,5486
2021,42602,Nitrogen dioxide (NO2),8,67,1004,74,INSTRUMENTAL - CHEMILUMINESCENCE,FRM,1,5690
2021,42602,Nitrogen dioxide (NO2),8,103,6,599,Instrumental - Chemiluminescence Teledyne API 200 EU/501,FRM,1,4702
2021,42602,Nitrogen dioxide (NO2),8,103,6,99,INSTRUMENTAL - GAS PHASE CHEMILUMINESCENCE,FRM,1,831
2021,42602,Nitrogen dioxide (NO2),8,103,7,99,INSTRUMENTAL - GAS PHASE CHEMILUMINESCENCE,FRM,1,3313
2021,42602,Nitrogen dioxide (NO2),8,123,13,200,Teledyne-API Model 200EUP or T200UP - Photolytic-Chemiluminescence,FEM,1,5265
2021,42602,Nitrogen dioxide (NO2),9,1,9003,212,Teledyne Model T500U - Cavity Attenuated Phase Shift Spectroscopy,FEM,1,4118
2021,42602,Nitrogen dioxide (NO2),9,3,25,212,Teledyne Model T500U - Cavity Attenuated Phase Shift Spectroscopy,FEM,1,4147
2021,42602,Nitrogen dioxide (NO2),9,3,1003,212,Teledyne Model T500U - Cavity Attenuated Phase Shift Spectroscopy,FEM,1,4114
2021,42602,Nitrogen dioxide (NO2),9,9,27,212,Teledyne Model T500U - Cavity Attenuated Phase Shift Spectroscopy,FEM,1,4138
2021,42602,Nitrogen dioxide (NO2),10,3,2004,574,Instrumental - Chemiluminescence Thermo Electron 42C-TL  42i-TL,FRM,1,3290
2021,42602,Nitrogen dioxide (NO2),11,1,41,74,INSTRUMENTAL - CHEMILUMINESCENCE,FRM,1,6411
2021,42602,Nitrogen dioxide (NO2),11,1,43,74,INSTRUMENTAL - CHEMILUMINESCENCE,FRM,1,5664
2021,42602,Nitrogen dioxide (NO2),11,1,43,186,Instrumental - Chemiluminescence,FRM,1,659
2021,42602,Nitrogen dioxide (NO2),11,1,43,212,Teledyne Model T500U - Cavity Attenuated Phase Shift Spectroscopy,FEM,2,6461
2021,42602,Nitrogen dioxide (NO2),11,1,50,74,INSTRUMENTAL - CHEMILUMINESCENCE,FRM,1,6348
2021,42602,Nitrogen dioxide (NO2),11,1,51,599,Instrumental - Chemiluminescence Teledyne API 200 EU/501,FRM,1,6227
2021,42602,Nitrogen dioxide (NO2),12,11,35,200,Teledyne-API Model 200EUP or T200UP - Photolytic-Chemiluminescence,FEM,1,4157
2021,42602,Nitrogen dioxide (NO2),12,11,8002,74,INSTRUMENTAL - CHEMILUMINESCENCE,FRM,1,3564
2021,42602,Nitrogen dioxide (NO2),12,31,32,74,INSTRUMENTAL - CHEMILUMINESCENCE,FRM,2,4081
2021,42602,Nitrogen dioxide (NO2),12,31,108,74,INSTRUMENTAL - CHEMILUMINESCENCE,FRM,1,4080
2021,42602,Nitrogen dioxide (NO2),12,57,113,200,Teledyne-API Model 200EUP or T200UP - Photolytic-Chemiluminescence,FEM,1,3781
2021,42602,Nitrogen dioxide (NO2),12,86,27,99,INSTRUMENTAL - GAS PHASE CHEMILUMINESCENCE,FRM,1,3994
2021,42602,Nitrogen dioxide (NO2),12,86,35,200,Teledyne-API Model 200EUP or T200UP - Photolytic-Chemiluminescence,FEM,1,470
2021,42602,Nitrogen dioxide (NO2),12,86,35,99,INSTRUMENTAL - GAS PHASE CHEMILUMINESCENCE,FRM,1,3453
2021,42602,Nitrogen dioxide (NO2),12,86,4002,99,INSTRUMENTAL - GAS PHASE CHEMILUMINESCENCE,FRM,2,4057
2021,42602,Nitrogen dioxide (NO2),12,95,2002,74,INSTRUMENTAL - CHEMILUMINESCENCE,FRM,1,3371
2021,42602,Nitrogen dioxide (NO2),12,103,18,212,Teledyne Model T500U - Cavity Attenuated Phase Shift Spectroscopy,FEM,1,4186
2021,42602,Nitrogen dioxide (NO2),12,103,27,212,Teledyne Model T500U - Cavity Attenuated Phase Shift Spectroscopy,FEM,1,4281
2021,42602,Nitrogen dioxide (NO2),13,89,2,74,INSTRUMENTAL - CHEMILUMINESCENCE,FRM,1,3376
2021,42602,Nitrogen dioxide (NO2),13,89,2,256,Instrumental - Teledyne API - Model N500 - Cavity-Attenuated Phase-Shift (CAPS) spectroscopy Nitrogen Oxides Analyzer,FEM,2,2111
2021,42602,Nitrogen dioxide (NO2),13,89,3,74,INSTRUMENTAL - CHEMILUMINESCENCE,FRM,1,5736
2021,42602,Nitrogen dioxide (NO2),13,121,56,74,INSTRUMENTAL - CHEMILUMINESCENCE,FRM,1,5708
2021,42602,Nitrogen dioxide (NO2),15,3,10,212,Teledyne Model T500U - Cavity Attenuated Phase Shift Spectroscopy,FEM,1,4227
2021,42602,Nitrogen dioxide (NO2),15,7,7,212,Teledyne Model T500U - Cavity Attenuated Phase Shift Spectroscopy,FEM,1,4178
2021,42602,Nitrogen dioxide (NO2),16,1,10,99,INSTRUMENTAL - GAS PHASE CHEMILUMINESCENCE,FRM,1,4224
2021,42602,Nitrogen dioxide (NO2),17,31,76,74,INSTRUMENTAL - CHEMILUMINESCENCE,FRM,1,5897
2021,42602,Nitrogen dioxide (NO2),17,31,119,212,Teledyne Model T500U - Cavity Attenuated Phase Shift Spectroscopy,FEM,1,7234
2021,42602,Nitrogen dioxide (NO2),17,31,219,212,Teledyne Model T500U - Cavity Attenuated Phase Shift Spectroscopy,FEM,1,7191
2021,42602,Nitrogen dioxide (NO2),17,31,3103,212,Teledyne Model T500U - Cavity Attenuated Phase Shift Spectroscopy,FEM,1,7239
2021,42602,Nitrogen dioxide (NO2),17,31,4002,99,INSTRUMENTAL - GAS PHASE CHEMILUMINESCENCE,FRM,1,6365
2021,42602,Nitrogen dioxide (NO2),17,31,4201,212,Teledyne Model T500U - Cavity Attenuated Phase Shift Spectroscopy,FEM,1,2206
2021,42602,Nitrogen dioxide (NO2),17,117,2,212,Teledyne Model T500U - Cavity Attenuated Phase Shift Spectroscopy,FEM,1,7130
2021,42602,Nitrogen dioxide (NO2),17,163,10,212,Teledyne Model T500U - Cavity Attenuated Phase Shift Spectroscopy,FEM,2,7284
2021,42602,Nitrogen dioxide (NO2),18,89,22,212,Teledyne Model T500U - Cavity Attenuated Phase Shift Spectroscopy,FEM,2,6465
2021,42602,Nitrogen dioxide (NO2),18,97,78,212,Teledyne Model T500U - Cavity Attenuated Phase Shift Spectroscopy,FEM,3,6238
2021,42602,Nitrogen dioxide (NO2),18,97,87,212,Teledyne Model T500U - Cavity Attenuated Phase Shift Spectroscopy,FEM,2,6031
2021,42602,Nitrogen dioxide (NO2),18,141,15,212,Teledyne Model T500U - Cavity Attenuated Phase Shift Spectroscopy,FEM,2,6486
2021,42602,Nitrogen dioxide (NO2),18,163,21,212,Teledyne Model T500U - Cavity Attenuated Phase Shift Spectroscopy,FEM,2,5803
2021,42602,Nitrogen dioxide (NO2),19,153,30,574,Instrumental - Chemiluminescence Thermo Electron 42C-TL  42i-TL,FRM,1,6575
2021,42602,Nitrogen dioxide (NO2),19,177,6,574,Instrumental - Chemiluminescence Thermo Electron 42C-TL  42i-TL,FRM,1,6436
2021,42602,Nitrogen dioxide (NO2),20,133,3,74,INSTRUMENTAL - CHEMILUMINESCENCE,FRM,1,2817
2021,42602,Nitrogen dioxide (NO2),20,173,10,99,INSTRUMENTAL - GAS PHASE CHEMILUMINESCENCE,FRM,3,4164
2021,42602,Nitrogen dioxide (NO2),20,191,2,99,INSTRUMENTAL - GAS PHASE CHEMILUMINESCENCE,FRM,1,4300
2021,42602,Nitrogen dioxide (NO2),20,195,1,99,INSTRUMENTAL - GAS PHASE CHEMILUMINESCENCE,FRM,1,4258
2021,42602,Nitrogen dioxide (NO2),20,209,21,99,INSTRUMENTAL - GAS PHASE CHEMILUMINESCENCE,FRM,1,3492
2021,42602,Nitrogen dioxide (NO2),21,19,17,99,INSTRUMENTAL - GAS PHASE CHEMILUMINESCENCE,FRM,1,3896
2021,42602,Nitrogen dioxide (NO2),21,37,3002,99,INSTRUMENTAL - GAS PHASE CHEMILUMINESCENCE,FRM,1,3992
2021,42602,Nitrogen dioxide (NO2),21,59,5,99,INSTRUMENTAL - GAS PHASE CHEMILUMINESCENCE,FRM,1,4090
2021,42602,Nitrogen dioxide (NO2),21,67,12,99,INSTRUMENTAL - GAS PHASE CHEMILUMINESCENCE,FRM,1,4111
2021,42602,Nitrogen dioxide (NO2),21,111,67,212,Teledyne Model T500U - Cavity Attenuated Phase Shift Spectroscopy,FEM,1,4086
2021,42602,Nitrogen dioxide (NO2),21,111,75,212,Teledyne Model T500U - Cavity Attenuated Phase Shift Spectroscopy,FEM,1,4125
2021,42602,Nitrogen dioxide (NO2),21,145,1024,99,INSTRUMENTAL - GAS PHASE CHEMILUMINESCENCE,FRM,1,3726
2021,42602,Nitrogen dioxide (NO2),22,5,4,74,INSTRUMENTAL - CHEMILUMINESCENCE,FRM,1,6621
2021,42602,Nitrogen dioxide (NO2),22,19,8,74,INSTRUMENTAL - CHEMILUMINESCENCE,FRM,1,6737
2021,42602,Nitrogen dioxide (NO2),22,33,9,74,INSTRUMENTAL - CHEMILUMINESCENCE,FRM,1,6998
2021,42602,Nitrogen dioxide (NO2),22,33,13,74,INSTRUMENTAL - CHEMILUMINESCENCE,FRM,1,7037
2021,42602,Nitrogen dioxide (NO2),22,47,9,74,INSTRUMENTAL - CHEMILUMINESCENCE,FRM,1,6748
2021,42602,Nitrogen dioxide (NO2),22,51,1001,74,INSTRUMENTAL - CHEMILUMINESCENCE,FRM,1,6512
2021,42602,Nitrogen dioxide (NO2),22,63,2,74,INSTRUMENTAL - CHEMILUMINESCENCE,FRM,1,6390
2021,42602,Nitrogen dioxide (NO2),22,71,21,74,INSTRUMENTAL - CHEMILUMINESCENCE,FRM,1,6542
2021,42602,Nitrogen dioxide (NO2),22,121,1,74,INSTRUMENTAL - CHEMILUMINESCENCE,FRM,1,6852
2021,42602,Nitrogen dioxide (NO2),23,3,1100,74,INSTRUMENTAL - CHEMILUMINESCENCE,FRM,1,4228
2021,42602,Nitrogen dioxide (NO2),23,5,29,574,Instrumental - Chemiluminescence Thermo Electron 42C-TL  42i-TL,FRM,1,6996
2021,42602,Nitrogen dioxide (NO2),24,5,9,212,Teledyne Model T500U - Cavity Attenuated Phase Shift Spectroscopy,FEM,4,6399
2021,42602,Nitrogen dioxide (NO2),24,5,3001,212,Teledyne Model T500U - Cavity Attenuated Phase Shift Spectroscopy,FEM,4,6414
2021,42602,Nitrogen dioxide (NO2),24,23,2,212,Teledyne Model T500U - Cavity Attenuated Phase Shift Spectroscopy,FEM,4,6468
2021,42602,Nitrogen dioxide (NO2),24,27,6,599,Instrumental - Chemiluminescence Teledyne API 200 EU/501,FRM,1,6336
2021,42602,Nitrogen dioxide (NO2),24,33,30,212,Teledyne Model T500U - Cavity Attenuated Phase Shift Spectroscopy,FEM,4,6494
2021,42602,Nitrogen dioxide (NO2),24,510,40,599,Instrumental - Chemiluminescence Teledyne API 200 EU/501,FRM,1,6321
2021,42602,Nitrogen dioxide (NO2),25,9,2006,212,Teledyne Model T500U - Cavity Attenuated Phase Shift Spectroscopy,FEM,3,4642
2021,42602,Nitrogen dioxide (NO2),25,13,8,99,INSTRUMENTAL - GAS PHASE CHEMILUMINESCENCE,FRM,1,5448
2021,42602,Nitrogen dioxide (NO2),25,13,18,574,Instrumental - Chemiluminescence Thermo Electron 42C-TL  42i-TL,FRM,1,1068
2021,42602,Nitrogen dioxide (NO2),25,13,18,99,INSTRUMENTAL - GAS PHASE CHEMILUMINESCENCE,FRM,1,4217
2021,42602,Nitrogen dioxide (NO2),25,15,4002,99,INSTRUMENTAL - GAS PHASE CHEMILUMINESCENCE,FRM,1,5489
2021,42602,Nitrogen dioxide (NO2),25,17,10,99,INSTRUMENTAL - GAS PHASE CHEMILUMINESCENCE,FRM,1,5543
2021,42602,Nitrogen dioxide (NO2),25,21,2005,99,INSTRUMENTAL - GAS PHASE CHEMILUMINESCENCE,FRM,1,3460
2021,42602,Nitrogen dioxide (NO2),25,21,3003,99,INSTRUMENTAL - GAS PHASE CHEMILUMINESCENCE,FRM,1,5469
2021,42602,Nitrogen dioxide (NO2),25,25,2,99,INSTRUMENTAL - GAS PHASE CHEMILUMINESCENCE,FRM,1,5597
2021,42602,Nitrogen dioxide (NO2),25,25,42,99,INSTRUMENTAL - GAS PHASE CHEMILUMINESCENCE,FRM,1,4925
2021,42602,Nitrogen dioxide (NO2),25,25,44,99,INSTRUMENTAL - GAS PHASE CHEMILUMINESCENCE,FRM,1,5557
2021,42602,Nitrogen dioxide (NO2),25,27,23,99,INSTRUMENTAL - GAS PHASE CHEMILUMINESCENCE,FRM,1,5229
2021,42602,Nitrogen dioxide (NO2),26,65,18,74,INSTRUMENTAL - CHEMILUMINESCENCE,FRM,1,4059
2021,42602,Nitrogen dioxide (NO2),26,81,20,256,Instrumental - Teledyne API - Model N500 - Cavity-Attenuated Phase-Shift (CAPS) spectroscopy Nitrogen Oxides Analyzer,FEM,1,4081
2021,42602,Nitrogen dioxide (NO2),26,113,1,74,INSTRUMENTAL - CHEMILUMINESCENCE,FRM,1,4120
2021,42602,Nitrogen dioxide (NO2),26,163,15,74,INSTRUMENTAL - CHEMILUMINESCENCE,FRM,1,4061
2021,42602,Nitrogen dioxide (NO2),26,163,19,256,Instrumental - Teledyne API - Model N500 - Cavity-Attenuated Phase-Shift (CAPS) spectroscopy Nitrogen Oxides Analyzer,FEM,3,3593
2021,42602,Nitrogen dioxide (NO2),26,163,93,74,INSTRUMENTAL - CHEMILUMINESCENCE,FRM,1,4109
2021,42602,Nitrogen dioxide (NO2),26,163,98,74,INSTRUMENTAL - CHEMILUMINESCENCE,FRM,1,3964
2021,42602,Nitrogen dioxide (NO2),26,163,99,74,INSTRUMENTAL - CHEMILUMINESCENCE,FRM,1,3889
2021,42602,Nitrogen dioxide (NO2),26,163,100,74,INSTRUMENTAL - CHEMILUMINESCENCE,FRM,1,4012
2021,42602,Nitrogen dioxide (NO2),27,3,1002,99,INSTRUMENTAL - GAS PHASE CHEMILUMINESCENCE,FRM,1,3652
2021,42602,Nitrogen dioxide (NO2),27,37,20,99,INSTRUMENTAL - GAS PHASE CHEMILUMINESCENCE,FRM,1,2965
2021,42602,Nitrogen dioxide (NO2),27,37,423,99,INSTRUMENTAL - GAS PHASE CHEMILUMINESCENCE,FRM,1,3602
2021,42602,Nitrogen dioxide (NO2),27,37,480,99,INSTRUMENTAL - GAS PHASE CHEMILUMINESCENCE,FRM,1,3329
2021,42602,Nitrogen dioxide (NO2),27,53,962,99,INSTRUMENTAL - GAS PHASE CHEMILUMINESCENCE,FRM,1,3299
2021,42602,Nitrogen dioxide (NO2),27,137,7001,99,INSTRUMENTAL - GAS PHASE CHEMILUMINESCENCE,FRM,1,4281
2021,42602,Nitrogen dioxide (NO2),28,59,6,99,INSTRUMENTAL - GAS PHASE CHEMILUMINESCENCE,FRM,1,4745
2021,42602,Nitrogen dioxide (NO2),29,95,34,74,INSTRUMENTAL - CHEMILUMINESCENCE,FRM,1,6504
2021,42602,Nitrogen dioxide (NO2),29,95,42,74,INSTRUMENTAL - CHEMILUMINESCENCE,FRM,1,6484
2021,42602,Nitrogen dioxide (NO2),29,137,1,74,INSTRUMENTAL - CHEMILUMINESCENCE,FRM,1,6045
2021,42602,Nitrogen dioxide (NO2),29,189,16,74,INSTRUMENTAL - CHEMILUMINESCENCE,FRM,1,6515
2021,42602,Nitrogen dioxide (NO2),29,510,85,200,Teledyne-API Model 200EUP or T200UP - Photolytic-Chemiluminescence,FEM,2,5999
2021,42602,Nitrogen dioxide (NO2),29,510,94,74,INSTRUMENTAL - CHEMILUMINESCENCE,FRM,1,6506
2021,42602,Nitrogen dioxide (NO2),30,27,6,599,Instrumental - Chemiluminescence Teledyne API 200 EU/501,FRM,1,4178
2021,42602,Nitrogen dioxide (NO2),30,31,17,599,Instrumental - Chemiluminescence Teledyne API 200 EU/501,FRM,5,5185
2021,42602,Nitrogen dioxide (NO2),30,71,10,599,Instrumental - Chemiluminescence Teledyne API 200 EU/501,FRM,1,4200
2021,42602,Nitrogen dioxide (NO2),30,75,1,574,Instrumental - Chemiluminescence Thermo Electron 42C-TL  42i-TL,FRM,1,4173
2021,42602,Nitrogen dioxide (NO2),30,83,2,599,Instrumental - Chemiluminescence Teledyne API 200 EU/501,FRM,1,4244
2021,42602,Nitrogen dioxide (NO2),30,87,1,574,Instrumental - Chemiluminescence Thermo Electron 42C-TL  42i-TL,FRM,1,3976
2021,42602,Nitrogen dioxide (NO2),32,3,75,212,Teledyne Model T500U - Cavity Attenuated Phase Shift Spectroscopy,FEM,1,5025
2021,42602,Nitrogen dioxide (NO2),32,3,540,212,Teledyne Model T500U - Cavity Attenuated Phase Shift Spectroscopy,FEM,1,4905
2021,42602,Nitrogen dioxide (NO2),32,3,561,212,Teledyne Model T500U - Cavity Attenuated Phase Shift Spectroscopy,FEM,1,5023
2021,42602,Nitrogen dioxide (NO2),32,3,1501,212,Teledyne Model T500U - Cavity Attenuated Phase Shift Spectroscopy,FEM,1,4934
2021,42602,Nitrogen dioxide (NO2),32,3,1502,212,Teledyne Model T500U - Cavity Attenuated Phase Shift Spectroscopy,FEM,1,4955
2021,42602,Nitrogen dioxide (NO2),32,3,2003,212,Teledyne Model T500U - Cavity Attenuated Phase Shift Spectroscopy,FEM,1,1450
2021,42602,Nitrogen dioxide (NO2),32,31,31,99,INSTRUMENTAL - GAS PHASE CHEMILUMINESCENCE,FRM,1,6432
2021,42602,Nitrogen dioxide (NO2),33,15,18,74,INSTRUMENTAL - CHEMILUMINESCENCE,FRM,2,1610
2021,42602,Nitrogen dioxide (NO2),34,3,10,74,INSTRUMENTAL - CHEMILUMINESCENCE,FRM,1,4190
2021,42602,Nitrogen dioxide (NO2),34,7,2,74,INSTRUMENTAL - CHEMILUMINESCENCE,FRM,1,4092
2021,42602,Nitrogen dioxide (NO2),34,11,7,99,INSTRUMENTAL - GAS PHASE CHEMILUMINESCENCE,FRM,1,4234
2021,42602,Nitrogen dioxide (NO2),34,13,3,74,INSTRUMENTAL - CHEMILUMINESCENCE,FRM,1,4255
2021,42602,Nitrogen dioxide (NO2),34,17,6,74,INSTRUMENTAL - CHEMILUMINESCENCE,FRM,1,4229
2021,42602,Nitrogen dioxide (NO2),34,17,1002,99,INSTRUMENTAL - GAS PHASE CHEMILUMINESCENCE,FRM,1,1293
2021,42602,Nitrogen dioxide (NO2),34,23,11,212,Teledyne Model T500U - Cavity Attenuated Phase Shift Spectroscopy,FEM,2,4227
2021,42602,Nitrogen dioxide (NO2),34,27,3001,99,INSTRUMENTAL - GAS PHASE CHEMILUMINESCENCE,FRM,1,4285
2021,42602,Nitrogen dioxide (NO2),34,39,4,74,INSTRUMENTAL - CHEMILUMINESCENCE,FRM,2,4216
2021,42602,Nitrogen dioxide (NO2),34,41,7,74,INSTRUMENTAL - CHEMILUMINESCENCE,FRM,1,4171
2021,42602,Nitrogen dioxide (NO2),35,1,23,99,INSTRUMENTAL - GAS PHASE CHEMILUMINESCENCE,FRM,1,4068
2021,42602,Nitrogen dioxide (NO2),35,1,29,99,INSTRUMENTAL - GAS PHASE CHEMILUMINESCENCE,FRM,1,4117
2021,42602,Nitrogen dioxide (NO2),35,13,21,74,INSTRUMENTAL - CHEMILUMINESCENCE,FRM,1,4192
2021,42602,Nitrogen dioxide (NO2),35,13,22,74,INSTRUMENTAL - CHEMILUMINESCENCE,FRM,1,4251
2021,42602,Nitrogen dioxide (NO2),35,15,1005,74,INSTRUMENTAL - CHEMILUMINESCENCE,FRM,1,4197
2021,42602,Nitrogen dioxide (NO2),35,25,8,74,INSTRUMENTAL - CHEMILUMINESCENCE,FRM,1,3827
2021,42602,Nitrogen dioxide (NO2),35,45,9,74,INSTRUMENTAL - CHEMILUMINESCENCE,FRM,1,4259
2021,42602,Nitrogen dioxide (NO2),35,45,18,74,INSTRUMENTAL - CHEMILUMINESCENCE,FRM,1,4261
2021,42602,Nitrogen dioxide (NO2),35,45,20,74,INSTRUMENTAL - CHEMILUMINESCENCE,FRM,1,6383
2021,42602,Nitrogen dioxide (NO2),35,45,1005,74,INSTRUMENTAL - CHEMILUMINESCENCE,FRM,2,4265
2021,42602,Nitrogen dioxide (NO2),35,45,1233,99,INSTRUMENTAL - GAS PHASE CHEMILUMINESCENCE,FRM,1,5633
2021,42602,Nitrogen dioxide (NO2),36,5,110,574,Instrumental - Chemiluminescence Thermo Electron 42C-TL  42i-TL,FRM,1,5821
2021,42602,Nitrogen dioxide (NO2),36,5,133,212,Teledyne Model T500U - Cavity Attenuated Phase Shift Spectroscopy,FEM,1,6443
2021,42602,Nitrogen dioxide (NO2),36,29,5,74,INSTRUMENTAL - CHEMILUMINESCENCE,FRM,3,6110
2021,42602,Nitrogen dioxide (NO2),36,29,23,99,INSTRUMENTAL - GAS PHASE CHEMILUMINESCENCE,FRM,1,5467
2021,42602,Nitrogen dioxide (NO2),36,55,15,200,Teledyne-API Model 200EUP or T200UP - Photolytic-Chemiluminescence,FEM,1,6225
2021,42602,Nitrogen dioxide (NO2),36,81,124,574,Instrumental - Chemiluminescence Thermo Electron 42C-TL  42i-TL,FRM,1,6371
2021,42602,Nitrogen dioxide (NO2),36,81,125,200,Teledyne-API Model 200EUP or T200UP - Photolytic-Chemiluminescence,FEM,1,6333
2021,42602,Nitrogen dioxide (NO2),37,67,22,599,Instrumental - Chemiluminescence Teledyne API 200 EU/501,FRM,1,5520
2021,42602,Nitrogen dioxide (NO2),37,119,41,599,Instrumental - Chemiluminescence Teledyne API 200 EU/501,FRM,1,6136
2021,42602,Nitrogen dioxide (NO2),37,119,45,200,Teledyne-API Model 200EUP or T200UP - Photolytic-Chemiluminescence,FEM,1,3497
2021,42602,Nitrogen dioxide (NO2),37,131,3,200,Teledyne-API Model 200EUP or T200UP - Photolytic-Chemiluminescence,FEM,1,5125
2021,42602,Nitrogen dioxide (NO2),37,159,21,212,Teledyne Model T500U - Cavity Attenuated Phase Shift Spectroscopy,FEM,3,5485
2021,42602,Nitrogen dioxide (NO2),37,183,14,200,Teledyne-API Model 200EUP or T200UP - Photolytic-Chemiluminescence,FEM,1,4260
2021,42602,Nitrogen dioxide (NO2),37,183,14,212,Teledyne Model T500U - Cavity Attenuated Phase Shift Spectroscopy,FEM,3,2389
2021,42602,Nitrogen dioxide (NO2),37,183,21,200,Teledyne-API Model 200EUP or T200UP - Photolytic-Chemiluminescence,FEM,1,5480
2021,42602,Nitrogen dioxide (NO2),38,13,4,74,INSTRUMENTAL - CHEMILUMINESCENCE,FRM,1,5193
2021,42602,Nitrogen dioxide (NO2),38,15,3,74,INSTRUMENTAL - CHEMILUMINESCENCE,FRM,1,5751
2021,42602,Nitrogen dioxide (NO2),38,17,1004,74,INSTRUMENTAL - CHEMILUMINESCENCE,FRM,1,3611
2021,42602,Nitrogen dioxide (NO2),38,17,1004,99,INSTRUMENTAL - GAS PHASE CHEMILUMINESCENCE,FRM,1,1770
2021,42602,Nitrogen dioxide (NO2),38,25,4,74,INSTRUMENTAL - CHEMILUMINESCENCE,FRM,1,5725
2021,42602,Nitrogen dioxide (NO2),38,53,2,74,INSTRUMENTAL - CHEMILUMINESCENCE,FRM,1,5623
2021,42602,Nitrogen dioxide (NO2),38,57,4,74,INSTRUMENTAL - CHEMILUMINESCENCE,FRM,1,5012
2021,42602,Nitrogen dioxide (NO2),38,65,2,241,Teledyne-API Model T200P Chemiluminescence - Photolytic-Chemiluminescence,FEM,1,91
2021,42602,Nitrogen dioxide (NO2),38,65,2,99,INSTRUMENTAL - GAS PHASE CHEMILUMINESCENCE,FRM,1,5672
2021,42602,Nitrogen dioxide (NO2),38,101,3,74,INSTRUMENTAL - CHEMILUMINESCENCE,FRM,1,1323
2021,42602,Nitrogen dioxide (NO2),38,101,3,99,INSTRUMENTAL - GAS PHASE CHEMILUMINESCENCE,FRM,1,4162
