<svg version="1.1" id="Layer_1" viewBox="80 200 1920 600" xmlns="http://www.w3.org/2000/svg">

	<ellipse fill="#231F20" cx="408.5" cy="480" rx="253.5" ry="122"/>

	<g>
		<path fill="#ffffff" d="M827.64,494.44c0,26.28-2.14,35.84-10.68,46.19c-7.21,8.76-18.69,14.07-30.96,14.07
			c-12.55,0-24.02-5.31-31.24-14.07c-8.54-10.35-10.67-20.17-10.67-46.19v-61.86c0-26.02,2.13-35.84,10.67-46.2
			c7.21-8.75,18.69-14.07,31.24-14.07c12.28,0,24.02,5.31,30.96,14.07c8.54,10.36,10.68,19.91,10.68,46.2V494.44z M770.78,491.52
			c0,16.73,0.53,24.69,1.86,28.41c2.14,6.37,6.95,10.09,13.35,10.09c6.67,0,11.74-4.25,13.61-11.68c0.8-3.45,1.34-11.95,1.34-26.81
			V435.5c0-17.26-0.53-24.69-1.87-28.41c-2.13-6.37-6.94-10.09-13.08-10.09c-6.94,0-12.01,4.25-13.88,11.68
			c-0.8,3.45-1.33,12.47-1.33,26.81V491.52z"/>

		<path fill="#ffffff" d="M901.01,552.05h-26.69V399.66h-28.29v-24.69h83.82v24.69h-28.83V552.05z"/>
		<path fill="#ffffff" d="M1000.02,552.05h-26.69V399.66h-28.29v-24.69h83.82v24.69h-28.83V552.05z"/>

		<path fill="#ffffff" d="M1130.8,494.44c0,26.28-2.14,35.84-10.68,46.19c-7.21,8.76-18.69,14.07-30.96,14.07
			c-12.55,0-24.02-5.31-31.24-14.07c-8.54-10.35-10.67-20.17-10.67-46.19v-61.86c0-26.02,2.13-35.84,10.67-46.2
			c7.21-8.75,18.69-14.07,31.24-14.07c12.28,0,24.02,5.31,30.96,14.07c8.54,10.36,10.68,19.91,10.68,46.2V494.44z M1073.94,491.52
			c0,16.73,0.53,24.69,1.86,28.41c2.14,6.37,6.95,10.09,13.35,10.09c6.67,0,11.74-4.25,13.61-11.68c0.8-3.45,1.34-11.95,1.34-26.81
			V435.5c0-17.26-0.53-24.69-1.87-28.41c-2.13-6.37-6.94-10.09-13.08-10.09c-6.94,0-12.02,4.25-13.89,11.68
			c-0.8,3.45-1.33,12.47-1.33,26.81V491.52z"/>

		<path fill="#ffffff" d="M1245.82,552.05V429.66l-25.63,122.39h-12.01l-26.96-122.39v122.39h-24.82V374.97h35.76l22.16,107.78
			l20.28-107.78h36.04v177.08H1245.82z"/>

		<path fill="#ffffff" d="M1369.39,399.66h-45.92v48.32h33.11v24.69h-33.11v54.69h45.92v24.69h-72.6V374.97h72.6V399.66z"/>
		<path fill="#ffffff" d="M1442.77,552.05h-26.69V399.66h-28.29v-24.69h83.82v24.69h-28.83V552.05z"/>
		<path fill="#ffffff" d="M1518.55,552.05h-26.69V374.97h37.37c30.97,0,44.58,15.93,44.58,51.24c0,22.83-4.8,35.04-17.89,44.6
			l20.56,81.23h-28.3l-16.82-74.07h-12.82V552.05z M1527.09,453.29c9.08,0,12.55-1.33,15.49-5.58c2.66-4.24,4.53-12.21,4.53-21.24
			c0-9.56-1.87-18.05-5.34-22.04c-2.67-3.71-6.14-4.78-14.69-4.78h-8.54v53.63H1527.09z"/>

		<path fill="#ffffff" d="M1626.1,552.05h-26.69V374.97h26.69V552.05z"/>
		<path fill="#ffffff" d="M1708.04,433.64c0-10.36-0.27-18.32-0.53-22.56c-1.07-8.5-6.67-14.07-14.41-14.07
			c-6.94,0-11.75,4.25-13.62,11.68c-0.8,3.45-1.33,11.94-1.33,26.81v56.28c0,16.99,0.53,24.42,1.86,28.14
			c2.14,6.37,6.95,10.09,13.08,10.09c7.74,0,13.34-5.85,14.15-14.87c0.53-4.78,0.8-17.79,0.8-25.75H1735v10.09
			c0,18.32-1.07,25.22-6.14,34.51c-6.68,13.01-19.76,20.71-35.5,20.71c-12.55,0-24.02-5.05-31.24-14.07
			c-8.81-10.61-10.67-19.38-10.67-46.99v-60c0-27.88,1.86-36.64,10.67-47.26c7.21-9.02,18.69-14.07,31.24-14.07
			c15.48,0,28.83,7.17,35.5,19.38c4.8,8.76,6.14,15.13,6.14,32.39v9.56H1708.04z"/>
	</g>
	<path fill="336699" d="M157.28,460.09c-1,2.82-1.81,5.76-2.39,8.74c-0.72,3.71-1.09,7.36-1.09,10.85c0,26.22,18.63,47.13,34.25,60.06
		c0.16,0.13,0.35,0.26,0.51,0.4l162.79-179.2c0,0,0,0-0.01,0c-8.5,0.96-16.85,2.15-25.07,3.53c-1.44,0.24-2.88,0.5-4.31,0.76
		c-2.02,0.36-4.01,0.73-6.01,1.12C234.69,382.04,172.34,417.83,157.28,460.09"/>

	<path fill="336699" d="M659.86,460.09c1,2.82,1.81,5.76,2.39,8.74c0.72,3.71,1.09,7.36,1.09,10.85c0,26.22-18.63,47.13-34.25,60.06
		c-0.16,0.13-0.35,0.26-0.51,0.4L465.8,360.93c0,0,0,0,0.01,0c8.5,0.96,16.85,2.15,25.07,3.53c1.44,0.24,2.88,0.5,4.31,0.76
		c2.02,0.36,4.01,0.73,6.01,1.12C582.45,382.04,644.8,417.83,659.86,460.09"/>

	<polygon fill="#ffffff" points="437.58,504.8 425.07,415.62 392.07,415.62 379.54,505 "/>
	<path fill="#ffffff" d="M361.31,345.93c1.34-0.12,2.66-0.26,4-0.37C363.86,345.67,362.55,345.8,361.31,345.93"/>
	<path fill="#ffffff" d="M451.84,345.55L451.84,345.55c1.35,0.11,2.66,0.26,4,0.37C454.59,345.8,453.28,345.67,451.84,345.55"/>
	<path fill="#33669A" d="M637.97,550.46c-9.89,8.18-21.45,15.78-34.42,22.7c-12.17,6.5-25.58,12.39-40.07,17.57
		c-32.33,11.56-69.94,19.6-110.63,23.02c-14.41,1.21-29.2,1.84-44.28,1.84c-15.08,0-29.87-0.63-44.28-1.84
		c-40.7-3.42-78.3-11.45-110.63-23.02c-14.49-5.18-27.9-11.07-40.07-17.57c-12.97-6.92-24.54-14.52-34.42-22.7
		c-24.92-20.62-39.29-44.85-39.29-70.78c0-4.56,0.48-9.07,1.35-13.52c0.71-3.62,1.68-7.21,2.94-10.74
		c20.1-56.39,108.98-100.68,221.14-109.87c3.32-0.27,6.67-0.51,10.04-0.72c2.87-0.18,5.76-0.32,8.66-0.46
		c8.1-0.38,16.28-0.6,24.57-0.6c8.29,0,16.48,0.22,24.58,0.6c2.89,0.13,5.79,0.28,8.66,0.46c3.36,0.21,6.71,0.45,10.04,0.72
		c112.12,9.18,200.99,53.45,221.12,109.81c1.27,3.56,2.25,7.17,2.96,10.82c0.87,4.44,1.35,8.94,1.35,13.5
		C677.26,505.61,662.89,529.84,637.97,550.46 M607.99,364.95c-53.62-27.12-124.44-42.05-199.42-42.05
		c-74.98,0-145.8,14.93-199.42,42.05C151.02,394.35,119,435.1,119,479.68c0,44.58,32.02,85.32,90.15,114.73
		c53.61,27.12,124.43,42.05,199.42,42.05c74.98,0,145.8-14.93,199.42-42.05c58.14-29.4,90.15-70.15,90.15-114.73
		C698.14,435.1,666.13,394.35,607.99,364.95"/>
	<path fill="#ffffff" d="M260.26,579.49l116.16-222c-0.07,0.01-0.13,0.01-0.19,0.01c-3.28,0.21-6.54,0.44-9.78,0.71
		c-0.52,0.04-1.03,0.11-1.55,0.16L221.72,562.72c11.22,5.95,23.51,11.38,36.62,16.12C258.97,579.06,259.63,579.26,260.26,579.49"/>
	<polygon fill="#ffffff" points="399.79,360.56 397.69,375.54 419.43,375.39 417.35,360.56 "/>
	<path fill="#ffffff" d="M370.3,570.85l-4.08,29.07c13.92,1.15,28.16,1.73,42.35,1.73c14.19,0,28.43-0.59,42.34-1.73l-4.07-29.07H370.3z
		"/>
	<path fill="#ffffff" d="M440.92,357.5c-0.06,0-0.13-0.01-0.19-0.01l116.16,222c0.63-0.22,1.28-0.42,1.91-0.65
		c13.11-4.74,25.4-10.17,36.62-16.12L452.25,358.36c-0.52-0.04-1.03-0.11-1.55-0.16C447.46,357.94,444.2,357.71,440.92,357.5"/>

	<path fill="#ffffff" d="M621.1,540.67c-9.18,7.07-19.93,13.64-31.98,19.62c-11.31,5.61-23.76,10.71-37.22,15.18
		c-30.04,9.99-64.97,16.94-102.77,19.89c-13.38,1.05-27.12,1.59-41.14,1.59c-14.01,0-27.75-0.54-41.13-1.59
		c-37.8-2.95-72.73-9.9-102.77-19.89c-13.46-4.48-25.91-9.57-37.22-15.18c-12.05-5.98-22.79-12.55-31.98-19.62
		c-23.15-17.82-36.5-38.76-36.5-61.17c0-3.94,0.45-7.84,1.25-11.68c0.66-3.13,1.56-6.23,2.73-9.28
		c18.67-48.74,101.24-87.01,205.43-94.95c3.09-0.24,6.2-0.44,9.32-0.62c2.66-0.16,5.35-0.28,8.04-0.4
		c7.52-0.33,15.13-0.52,22.83-0.52c7.7,0,15.31,0.19,22.83,0.52c2.69,0.12,5.38,0.24,8.04,0.4c3.12,0.18,6.23,0.39,9.32,0.62
		c104.16,7.94,186.71,46.19,205.41,94.91c1.18,3.08,2.09,6.2,2.75,9.35c0.81,3.84,1.25,7.73,1.25,11.66
		C657.6,501.91,644.25,522.86,621.1,540.67 M593.25,380.34C543.44,356.91,477.65,344,408,344s-135.44,12.91-185.25,36.34
		C168.74,405.76,139,440.97,139,479.5c0,38.53,29.74,73.74,83.75,99.15C272.55,602.09,338.34,615,408,615s135.44-12.91,185.25-36.34
		C647.26,553.24,677,518.03,677,479.5C677,440.97,647.26,405.76,593.25,380.34"/>
</svg>



